,index,created_at,id,id_str,full_text,truncated,display_text_range,entities,extended_entities,source,in_reply_to_status_id,in_reply_to_status_id_str,in_reply_to_user_id,in_reply_to_user_id_str,in_reply_to_screen_name,user,geo,coordinates,place,contributors,is_quote_status,quoted_status_id,quoted_status_id_str,quoted_status_permalink,quoted_status,retweet_count,favorite_count,favorited,retweeted,possibly_sensitive,lang,label
93,93,Sat Apr 04 00:14:26 +0000 2020,1246229605586857984,1246229605586857984,A Conspiracy Theory That 5G Is Causing The Coronavirus Is Spreading Alongside The Pandemic - https://t.co/T48YJnftGO https://t.co/1F0kXkaUwc,False,"[0, 116]","{'hashtags': [], 'symbols': [], 'user_mentions': [], 'urls': [{'url': 'https://t.co/T48YJnftGO', 'expanded_url': 'https://www.cupbord.com/index.php/a-conspiracy-theory-that-5g-is-causing-the-coronavirus-is-spreading-alongside-the-pandemic/', 'display_url': 'cupbord.com/index.php/a-co…', 'indices': [93, 116]}], 'media': [{'id': 1246229603770707968, 'id_str': '1246229603770707968', 'indices': [117, 140], 'media_url': 'http://pbs.twimg.com/media/EUt_OMlUMAACKdF.png', 'media_url_https': 'https://pbs.twimg.com/media/EUt_OMlUMAACKdF.png', 'url': 'https://t.co/1F0kXkaUwc', 'display_url': 'pic.twitter.com/1F0kXkaUwc', 'expanded_url': 'https://twitter.com/MEDIABOXSTORE/status/1246229605586857984/photo/1', 'type': 'photo', 'sizes': {'medium': {'w': 700, 'h': 438, 'resize': 'fit'}, 'large': {'w': 700, 'h': 438, 'resize': 'fit'}, 'thumb': {'w': 150, 'h': 150, 'resize': 'crop'}, 'small': {'w': 680, 'h': 425, 'resize': 'fit'}}}]}","{'media': [{'id': 1246229603770707968, 'id_str': '1246229603770707968', 'indices': [117, 140], 'media_url': 'http://pbs.twimg.com/media/EUt_OMlUMAACKdF.png', 'media_url_https': 'https://pbs.twimg.com/media/EUt_OMlUMAACKdF.png', 'url': 'https://t.co/1F0kXkaUwc', 'display_url': 'pic.twitter.com/1F0kXkaUwc', 'expanded_url': 'https://twitter.com/MEDIABOXSTORE/status/1246229605586857984/photo/1', 'type': 'photo', 'sizes': {'medium': {'w': 700, 'h': 438, 'resize': 'fit'}, 'large': {'w': 700, 'h': 438, 'resize': 'fit'}, 'thumb': {'w': 150, 'h': 150, 'resize': 'crop'}, 'small': {'w': 680, 'h': 425, 'resize': 'fit'}}}]}","<a href=""http://www.cupbord.com/"" rel=""nofollow"">cupbord Community</a>",,,,,,"{'id': 279483742, 'id_str': '279483742', 'name': 'Mohamed Elsayed Elarby', 'screen_name': 'MEDIABOXSTORE', 'location': 'Egypt', 'description': 'A tech blog focused on #blogging tips, #SEO, #socialmedia, #mobile #gadgets, pc tips, how-to guides and general #tips and #tricks https://t.co/07uPAOg9St', 'url': 'https://t.co/0NFvjlqLX0', 'entities': {'url': {'urls': [{'url': 'https://t.co/0NFvjlqLX0', 'expanded_url': 'https://www.cupbord.com', 'display_url': 'cupbord.com', 'indices': [0, 23]}]}, 'description': {'urls': [{'url': 'https://t.co/07uPAOg9St', 'expanded_url': 'http://justfreelearn.com', 'display_url': 'justfreelearn.com', 'indices': [130, 153]}]}}, 'protected': False, 'followers_count': 19486, 'friends_count': 4967, 'listed_count': 1472, 'created_at': 'Sat Apr 09 10:44:55 +0000 2011', 'favourites_count': 2038, 'utc_offset': None, 'time_zone': None, 'geo_enabled': False, 'verified': False, 'statuses_count': 715811, 'lang': None, 'contributors_enabled': False, 'is_translator': False, 'is_translation_enabled': False, 'profile_background_color': '022330', 'profile_background_image_url': 'http://abs.twimg.com/images/themes/theme15/bg.png', 'profile_background_image_url_https': 'https://abs.twimg.com/images/themes/theme15/bg.png', 'profile_background_tile': False, 'profile_image_url': 'http://pbs.twimg.com/profile_images/460772493095993345/5g2epH0K_normal.jpeg', 'profile_image_url_https': 'https://pbs.twimg.com/profile_images/460772493095993345/5g2epH0K_normal.jpeg', 'profile_banner_url': 'https://pbs.twimg.com/profile_banners/279483742/1554728485', 'profile_link_color': '0084B4', 'profile_sidebar_border_color': 'A8C7F7', 'profile_sidebar_fill_color': 'C0DFEC', 'profile_text_color': '333333', 'profile_use_background_image': True, 'has_extended_profile': True, 'default_profile': False, 'default_profile_image': False, 'following': False, 'follow_request_sent': False, 'notifications': False, 'translator_type': 'none'}",,,,,False,,,,,0,0,False,False,False,en,1.0
764,764,Tue Apr 14 20:15:44 +0000 2020,1250155802175963136,1250155802175963136,A Conspiracy Theory That 5G Is Causing The Coronavirus Is Spreading Alongside The Pandemic https://t.co/YYxYCbBksL via @broderick,False,"[0, 129]","{'hashtags': [], 'symbols': [], 'user_mentions': [{'screen_name': 'broderick', 'name': 'Ryan Broderick', 'id': 18205531, 'id_str': '18205531', 'indices': [119, 129]}], 'urls': [{'url': 'https://t.co/YYxYCbBksL', 'expanded_url': 'https://www.buzzfeednews.com/article/ryanhatesthis/conspiracy-theory-5g-coronavirus-qanon', 'display_url': 'buzzfeednews.com/article/ryanha…', 'indices': [91, 114]}]}",,"<a href=""http://twitter.com"" rel=""nofollow"">Twitter Web Client</a>",,,,,,"{'id': 249588192, 'id_str': '249588192', 'name': 'Vanessa Perez', 'screen_name': 'VanessaPerez922', 'location': '', 'description': '', 'url': None, 'entities': {'description': {'urls': []}}, 'protected': False, 'followers_count': 495, 'friends_count': 3137, 'listed_count': 11, 'created_at': 'Wed Feb 09 10:57:07 +0000 2011', 'favourites_count': 8054, 'utc_offset': None, 'time_zone': None, 'geo_enabled': False, 'verified': False, 'statuses_count': 132359, 'lang': None, 'contributors_enabled': False, 'is_translator': False, 'is_translation_enabled': False, 'profile_background_color': '000000', 'profile_background_image_url': 'http://abs.twimg.com/images/themes/theme10/bg.gif', 'profile_background_image_url_https': 'https://abs.twimg.com/images/themes/theme10/bg.gif', 'profile_background_tile': False, 'profile_image_url': 'http://pbs.twimg.com/profile_images/1288283653076811776/vxZ1ZzK0_normal.png', 'profile_image_url_https': 'https://pbs.twimg.com/profile_images/1288283653076811776/vxZ1ZzK0_normal.png', 'profile_banner_url': 'https://pbs.twimg.com/profile_banners/249588192/1576838413', 'profile_link_color': 'E81C4F', 'profile_sidebar_border_color': '000000', 'profile_sidebar_fill_color': '000000', 'profile_text_color': '000000', 'profile_use_background_image': False, 'has_extended_profile': True, 'default_profile': False, 'default_profile_image': False, 'following': False, 'follow_request_sent': False, 'notifications': False, 'translator_type': 'none'}",,,,,False,,,,,0,2,False,False,True,en,1.0
1717,560,Sat Apr 04 00:19:55 +0000 2020,1246230987736059914,1246230987736059914,A Conspiracy Theory That 5G Is Causing The Coronavirus Is Spreading Alongside The Pandemic https://t.co/zzhnvGmntX via @broderick,False,"[0, 129]","{'hashtags': [], 'symbols': [], 'user_mentions': [{'screen_name': 'broderick', 'name': 'Ryan Broderick', 'id': 18205531, 'id_str': '18205531', 'indices': [119, 129]}], 'urls': [{'url': 'https://t.co/zzhnvGmntX', 'expanded_url': 'https://www.buzzfeednews.com/article/ryanhatesthis/conspiracy-theory-5g-coronavirus-qanon', 'display_url': 'buzzfeednews.com/article/ryanha…', 'indices': [91, 114]}]}",,"<a href=""http://twitter.com/download/iphone"" rel=""nofollow"">Twitter for iPhone</a>",,,,,,"{'id': 17042078, 'id_str': '17042078', 'name': 'Virginia Hughes', 'screen_name': 'virginiahughes', 'location': 'Brooklyn, NY', 'description': 'editor on the science desk @nytimes, focused on coronavirus treatments and vaccines. former @buzzfeednews. pro nutgraf, pro dog, anti sap. she/her.', 'url': 'https://t.co/jDTVyVAVYg', 'entities': {'url': {'urls': [{'url': 'https://t.co/jDTVyVAVYg', 'expanded_url': 'http://www.virginiahughes.com', 'display_url': 'virginiahughes.com', 'indices': [0, 23]}]}, 'description': {'urls': []}}, 'protected': False, 'followers_count': 37486, 'friends_count': 2685, 'listed_count': 1383, 'created_at': 'Wed Oct 29 14:18:55 +0000 2008', 'favourites_count': 5602, 'utc_offset': None, 'time_zone': None, 'geo_enabled': False, 'verified': True, 'statuses_count': 19186, 'lang': None, 'contributors_enabled': False, 'is_translator': False, 'is_translation_enabled': False, 'profile_background_color': '4C6263', 'profile_background_image_url': 'http://abs.twimg.com/images/themes/theme16/bg.gif', 'profile_background_image_url_https': 'https://abs.twimg.com/images/themes/theme16/bg.gif', 'profile_background_tile': False, 'profile_image_url': 'http://pbs.twimg.com/profile_images/1255164321912545300/zOOL-yz__normal.jpg', 'profile_image_url_https': 'https://pbs.twimg.com/profile_images/1255164321912545300/zOOL-yz__normal.jpg', 'profile_banner_url': 'https://pbs.twimg.com/profile_banners/17042078/1529204800', 'profile_link_color': '89C9FA', 'profile_sidebar_border_color': 'FFFFFF', 'profile_sidebar_fill_color': 'F0884F', 'profile_text_color': 'D5C887', 'profile_use_background_image': False, 'has_extended_profile': False, 'default_profile': False, 'default_profile_image': False, 'following': False, 'follow_request_sent': False, 'notifications': False, 'translator_type': 'none'}",,,,,False,,,,,3,5,False,False,False,en,3.0
2195,1038,Mon Apr 06 13:15:06 +0000 2020,1247150841615835137,1247150841615835137,A Conspiracy Theory That 5G Is Causing The Coronavirus Is Spreading Alongside The Pandemic - BuzzFeed News https://t.co/FplosSYZjh,False,"[0, 130]","{'hashtags': [], 'symbols': [], 'user_mentions': [], 'urls': [{'url': 'https://t.co/FplosSYZjh', 'expanded_url': 'https://apple.news/AOhBzrO5-TFKzIgRl17uQqQ', 'display_url': 'apple.news/AOhBzrO5-TFKzI…', 'indices': [107, 130]}]}",,"<a href=""https://www.hootsuite.com"" rel=""nofollow"">Hootsuite Inc.</a>",,,,,,"{'id': 912799952476233729, 'id_str': '912799952476233729', 'name': 'RedLights4FF', 'screen_name': 'RedLights4FF', 'location': 'PO Box 157 Watertown, NY', 'description': 'Place a red light outside of your home or business to support the firefighters everywhere. We support 1st responders in Fire, EMS and Dispatch.', 'url': 'https://t.co/UI6w7lrWDp', 'entities': {'url': {'urls': [{'url': 'https://t.co/UI6w7lrWDp', 'expanded_url': 'https://www.redlightsforfirefighters.com', 'display_url': 'redlightsforfirefighters.com', 'indices': [0, 23]}]}, 'description': {'urls': []}}, 'protected': False, 'followers_count': 290, 'friends_count': 606, 'listed_count': 2, 'created_at': 'Tue Sep 26 22:04:02 +0000 2017', 'favourites_count': 3324, 'utc_offset': None, 'time_zone': None, 'geo_enabled': False, 'verified': False, 'statuses_count': 26056, 'lang': None, 'contributors_enabled': False, 'is_translator': False, 'is_translation_enabled': False, 'profile_background_color': 'F5F8FA', 'profile_background_image_url': None, 'profile_background_image_url_https': None, 'profile_background_tile': False, 'profile_image_url': 'http://pbs.twimg.com/profile_images/1294410068692103168/JkbPxDzB_normal.jpg', 'profile_image_url_https': 'https://pbs.twimg.com/profile_images/1294410068692103168/JkbPxDzB_normal.jpg', 'profile_banner_url': 'https://pbs.twimg.com/profile_banners/912799952476233729/1582757103', 'profile_link_color': '1DA1F2', 'profile_sidebar_border_color': 'C0DEED', 'profile_sidebar_fill_color': 'DDEEF6', 'profile_text_color': '333333', 'profile_use_background_image': True, 'has_extended_profile': True, 'default_profile': True, 'default_profile_image': False, 'following': False, 'follow_request_sent': False, 'notifications': False, 'translator_type': 'none'}",,,,,False,,,,,0,0,False,False,False,en,3.0
3763,2606,Sat Apr 04 06:24:37 +0000 2020,1246322765457735680,1246322765457735680,A Conspiracy Theory That 5G Is Causing The Coronavirus Is Spreading Alongside The Pandemic https://t.co/2VsEXvOPTt,False,"[0, 114]","{'hashtags': [], 'symbols': [], 'user_mentions': [], 'urls': [{'url': 'https://t.co/2VsEXvOPTt', 'expanded_url': 'http://2020l.net/2020/04/04/a-conspiracy-theory-that-5g-is-causing-the-coronavirus-is-spreading-alongside-the-pandemic/', 'display_url': '2020l.net/2020/04/04/a-c…', 'indices': [91, 114]}]}",,"<a href=""http://publicize.wp.com/"" rel=""nofollow"">WordPress.com</a>",,,,,,"{'id': 1237760219687641089, 'id_str': '1237760219687641089', 'name': '2020L', 'screen_name': '2020L7', 'location': '', 'description': '2020L', 'url': None, 'entities': {'description': {'urls': []}}, 'protected': False, 'followers_count': 8, 'friends_count': 175, 'listed_count': 0, 'created_at': 'Wed Mar 11 15:20:14 +0000 2020', 'favourites_count': 25, 'utc_offset': None, 'time_zone': None, 'geo_enabled': False, 'verified': False, 'statuses_count': 183, 'lang': None, 'contributors_enabled': False, 'is_translator': False, 'is_translation_enabled': False, 'profile_background_color': 'F5F8FA', 'profile_background_image_url': None, 'profile_background_image_url_https': None, 'profile_background_tile': False, 'profile_image_url': 'http://pbs.twimg.com/profile_images/1246127058041942016/nfROkHIY_normal.jpg', 'profile_image_url_https': 'https://pbs.twimg.com/profile_images/1246127058041942016/nfROkHIY_normal.jpg', 'profile_banner_url': 'https://pbs.twimg.com/profile_banners/1237760219687641089/1585934999', 'profile_link_color': '1DA1F2', 'profile_sidebar_border_color': 'C0DEED', 'profile_sidebar_fill_color': 'DDEEF6', 'profile_text_color': '333333', 'profile_use_background_image': True, 'has_extended_profile': False, 'default_profile': True, 'default_profile_image': False, 'following': False, 'follow_request_sent': False, 'notifications': False, 'translator_type': 'none'}",,,,,False,,,,,0,0,False,False,False,en,3.0
3984,2827,Sat Apr 04 20:54:06 +0000 2020,1246541578463662081,1246541578463662081,A Conspiracy Theory That 5G Is Causing The Coronavirus Is Spreading Alongside The Pandemic https://t.co/sZx6FQzPbc,False,"[0, 114]","{'hashtags': [], 'symbols': [], 'user_mentions': [], 'urls': [{'url': 'https://t.co/sZx6FQzPbc', 'expanded_url': 'https://www.buzzfeednews.com/article/ryanhatesthis/conspiracy-theory-5g-coronavirus-qanon', 'display_url': 'buzzfeednews.com/article/ryanha…', 'indices': [91, 114]}]}",,"<a href=""http://twitter.com/download/iphone"" rel=""nofollow"">Twitter for iPhone</a>",,,,,,"{'id': 134325690, 'id_str': '134325690', 'name': '🏁🙏🏿', 'screen_name': 'yaboyboyfresh', 'location': 'California', 'description': 'R.I.P to my Dad , #NH #824 #mylifematters', 'url': 'https://t.co/kmG9j19twA', 'entities': {'url': {'urls': [{'url': 'https://t.co/kmG9j19twA', 'expanded_url': 'http://Instagram.com/yaboyboyfresh', 'display_url': 'Instagram.com/yaboyboyfresh', 'indices': [0, 23]}]}, 'description': {'urls': []}}, 'protected': False, 'followers_count': 835, 'friends_count': 905, 'listed_count': 6, 'created_at': 'Sun Apr 18 03:18:39 +0000 2010', 'favourites_count': 2975, 'utc_offset': None, 'time_zone': None, 'geo_enabled': True, 'verified': False, 'statuses_count': 39684, 'lang': None, 'contributors_enabled': False, 'is_translator': False, 'is_translation_enabled': False, 'profile_background_color': 'C0DEED', 'profile_background_image_url': 'http://abs.twimg.com/images/themes/theme1/bg.png', 'profile_background_image_url_https': 'https://abs.twimg.com/images/themes/theme1/bg.png', 'profile_background_tile': False, 'profile_image_url': 'http://pbs.twimg.com/profile_images/1290049442666516480/CPyN-Mdg_normal.jpg', 'profile_image_url_https': 'https://pbs.twimg.com/profile_images/1290049442666516480/CPyN-Mdg_normal.jpg', 'profile_banner_url': 'https://pbs.twimg.com/profile_banners/134325690/1596396735', 'profile_link_color': '0084B4', 'profile_sidebar_border_color': 'C0DEED', 'profile_sidebar_fill_color': 'DDEEF6', 'profile_text_color': '333333', 'profile_use_background_image': True, 'has_extended_profile': True, 'default_profile': False, 'default_profile_image': False, 'following': False, 'follow_request_sent': False, 'notifications': False, 'translator_type': 'none'}",,,,,False,,,,,0,0,False,False,False,en,3.0
217,217,Wed Apr 22 13:09:24 +0000 2020,1252947612220547072,1252947612220547072,Jesus Christ Christian Bible Prophecy News - Love Win Model Hot Lifestyle: Humans falling down dead are from 5G &amp; not COVID-19 Coronavirus. Thousands birds &amp; fish dead. Fallen angels see humans as test specimen lab rats for 5G weapon. Donald Trump will be legalizing NWO execution https://t.co/rkrgMwM2W4,False,"[0, 288]","{'hashtags': [], 'symbols': [], 'user_mentions': [], 'urls': [], 'media': [{'id': 1252947559460376577, 'id_str': '1252947559460376577', 'indices': [289, 312], 'media_url': 'http://pbs.twimg.com/media/EWNdKrvUEAEZ37i.jpg', 'media_url_https': 'https://pbs.twimg.com/media/EWNdKrvUEAEZ37i.jpg', 'url': 'https://t.co/rkrgMwM2W4', 'display_url': 'pic.twitter.com/rkrgMwM2W4', 'expanded_url': 'https://twitter.com/MissionaryJapan/status/1252947612220547072/photo/1', 'type': 'photo', 'sizes': {'thumb': {'w': 150, 'h': 150, 'resize': 'crop'}, 'small': {'w': 680, 'h': 388, 'resize': 'fit'}, 'medium': {'w': 1191, 'h': 680, 'resize': 'fit'}, 'large': {'w': 1191, 'h': 680, 'resize': 'fit'}}}]}","{'media': [{'id': 1252947559460376577, 'id_str': '1252947559460376577', 'indices': [289, 312], 'media_url': 'http://pbs.twimg.com/media/EWNdKrvUEAEZ37i.jpg', 'media_url_https': 'https://pbs.twimg.com/media/EWNdKrvUEAEZ37i.jpg', 'url': 'https://t.co/rkrgMwM2W4', 'display_url': 'pic.twitter.com/rkrgMwM2W4', 'expanded_url': 'https://twitter.com/MissionaryJapan/status/1252947612220547072/photo/1', 'type': 'photo', 'sizes': {'thumb': {'w': 150, 'h': 150, 'resize': 'crop'}, 'small': {'w': 680, 'h': 388, 'resize': 'fit'}, 'medium': {'w': 1191, 'h': 680, 'resize': 'fit'}, 'large': {'w': 1191, 'h': 680, 'resize': 'fit'}}}, {'id': 1252947560467099649, 'id_str': '1252947560467099649', 'indices': [289, 312], 'media_url': 'http://pbs.twimg.com/media/EWNdKvfVcAESqiO.jpg', 'media_url_https': 'https://pbs.twimg.com/media/EWNdKvfVcAESqiO.jpg', 'url': 'https://t.co/rkrgMwM2W4', 'display_url': 'pic.twitter.com/rkrgMwM2W4', 'expanded_url': 'https://twitter.com/MissionaryJapan/status/1252947612220547072/photo/1', 'type': 'photo', 'sizes': {'thumb': {'w': 150, 'h': 150, 'resize': 'crop'}, 'small': {'w': 680, 'h': 348, 'resize': 'fit'}, 'large': {'w': 1132, 'h': 579, 'resize': 'fit'}, 'medium': {'w': 1132, 'h': 579, 'resize': 'fit'}}}, {'id': 1252947561058430978, 'id_str': '1252947561058430978', 'indices': [289, 312], 'media_url': 'http://pbs.twimg.com/media/EWNdKxsUcAIxm_s.jpg', 'media_url_https': 'https://pbs.twimg.com/media/EWNdKxsUcAIxm_s.jpg', 'url': 'https://t.co/rkrgMwM2W4', 'display_url': 'pic.twitter.com/rkrgMwM2W4', 'expanded_url': 'https://twitter.com/MissionaryJapan/status/1252947612220547072/photo/1', 'type': 'photo', 'sizes': {'thumb': {'w': 150, 'h': 150, 'resize': 'crop'}, 'medium': {'w': 911, 'h': 589, 'resize': 'fit'}, 'small': {'w': 680, 'h': 440, 'resize': 'fit'}, 'large': {'w': 911, 'h': 589, 'resize': 'fit'}}}, {'id': 1252947561729503233, 'id_str': '1252947561729503233', 'indices': [289, 312], 'media_url': 'http://pbs.twimg.com/media/EWNdK0MUMAE2MIj.jpg', 'media_url_https': 'https://pbs.twimg.com/media/EWNdK0MUMAE2MIj.jpg', 'url': 'https://t.co/rkrgMwM2W4', 'display_url': 'pic.twitter.com/rkrgMwM2W4', 'expanded_url': 'https://twitter.com/MissionaryJapan/status/1252947612220547072/photo/1', 'type': 'photo', 'sizes': {'thumb': {'w': 150, 'h': 150, 'resize': 'crop'}, 'small': {'w': 680, 'h': 309, 'resize': 'fit'}, 'medium': {'w': 1137, 'h': 516, 'resize': 'fit'}, 'large': {'w': 1137, 'h': 516, 'resize': 'fit'}}}]}","<a href=""https://mobile.twitter.com"" rel=""nofollow"">Twitter Web App</a>",,,,,,"{'id': 56334156, 'id_str': '56334156', 'name': 'Armageddon Apocalyps', 'screen_name': 'MissionaryJapan', 'location': 'Human Race Survival Resistance', 'description': ""Old Twitter Articles https://t.co/oXZHP0GvsH ・ Residence: Illuminati's Radiation Super Contamination Area ・ Job: Volunteer Worker & Missionary To Hebrew Remnant"", 'url': 'https://t.co/6q9ea9PvdA', 'entities': {'url': {'urls': [{'url': 'https://t.co/6q9ea9PvdA', 'expanded_url': 'https://www.facebook.com/profile.php?id=100018513877047', 'display_url': 'facebook.com/profile.php?id…', 'indices': [0, 23]}]}, 'description': {'urls': [{'url': 'https://t.co/oXZHP0GvsH', 'expanded_url': 'https://humanracesurvivalresistance.wordpress.com/', 'display_url': '…nracesurvivalresistance.wordpress.com', 'indices': [21, 44]}]}}, 'protected': False, 'followers_count': 2893, 'friends_count': 1857, 'listed_count': 58, 'created_at': 'Mon Jul 13 09:47:20 +0000 2009', 'favourites_count': 203, 'utc_offset': None, 'time_zone': None, 'geo_enabled': False, 'verified': False, 'statuses_count': 222514, 'lang': None, 'contributors_enabled': False, 'is_translator': False, 'is_translation_enabled': False, 'profile_background_color': 'BAF5C8', 'profile_background_image_url': 'http://abs.twimg.com/images/themes/theme3/bg.gif', 'profile_background_image_url_https': 'https://abs.twimg.com/images/themes/theme3/bg.gif', 'profile_background_tile': True, 'profile_image_url': 'http://pbs.twimg.com/profile_images/924259051533303808/8UbEiO80_normal.jpg', 'profile_image_url_https': 'https://pbs.twimg.com/profile_images/924259051533303808/8UbEiO80_normal.jpg', 'profile_banner_url': 'https://pbs.twimg.com/profile_banners/56334156/1509551095', 'profile_link_color': '18A173', 'profile_sidebar_border_color': 'FFFFFF', 'profile_sidebar_fill_color': 'DDF5D0', 'profile_text_color': '095C3B', 'profile_use_background_image': True, 'has_extended_profile': False, 'default_profile': False, 'default_profile_image': False, 'following': False, 'follow_request_sent': False, 'notifications': False, 'translator_type': 'none'}",,,,,False,,,,,1,1,False,False,False,en,1.0
607,607,Wed Apr 08 15:07:24 +0000 2020,1247903877686366211,1247903877686366211,Jesus Christ Christian Bible Prophecy News - Love Win Model Hot Lifestyle: Humans falling down dead are from 5G &amp; not COVID-19 Coronavirus. Thousands birds &amp; fish dead. Fallen angels see humans as test specimen lab rats for 5G weapon. Donald Trump will be legalizing NWO execution https://t.co/rd7a0xRyWZ,False,"[0, 288]","{'hashtags': [], 'symbols': [], 'user_mentions': [], 'urls': [], 'media': [{'id': 1247903869679484931, 'id_str': '1247903869679484931', 'indices': [289, 312], 'media_url': 'http://pbs.twimg.com/media/EVFx9TIUwAMODA6.jpg', 'media_url_https': 'https://pbs.twimg.com/media/EVFx9TIUwAMODA6.jpg', 'url': 'https://t.co/rd7a0xRyWZ', 'display_url': 'pic.twitter.com/rd7a0xRyWZ', 'expanded_url': 'https://twitter.com/MissionaryJapan/status/1247903877686366211/photo/1', 'type': 'photo', 'sizes': {'thumb': {'w': 150, 'h': 150, 'resize': 'crop'}, 'small': {'w': 680, 'h': 388, 'resize': 'fit'}, 'medium': {'w': 1191, 'h': 680, 'resize': 'fit'}, 'large': {'w': 1191, 'h': 680, 'resize': 'fit'}}}]}","{'media': [{'id': 1247903869679484931, 'id_str': '1247903869679484931', 'indices': [289, 312], 'media_url': 'http://pbs.twimg.com/media/EVFx9TIUwAMODA6.jpg', 'media_url_https': 'https://pbs.twimg.com/media/EVFx9TIUwAMODA6.jpg', 'url': 'https://t.co/rd7a0xRyWZ', 'display_url': 'pic.twitter.com/rd7a0xRyWZ', 'expanded_url': 'https://twitter.com/MissionaryJapan/status/1247903877686366211/photo/1', 'type': 'photo', 'sizes': {'thumb': {'w': 150, 'h': 150, 'resize': 'crop'}, 'small': {'w': 680, 'h': 388, 'resize': 'fit'}, 'medium': {'w': 1191, 'h': 680, 'resize': 'fit'}, 'large': {'w': 1191, 'h': 680, 'resize': 'fit'}}}, {'id': 1247903870187003904, 'id_str': '1247903870187003904', 'indices': [289, 312], 'media_url': 'http://pbs.twimg.com/media/EVFx9VBU4AAcZgW.jpg', 'media_url_https': 'https://pbs.twimg.com/media/EVFx9VBU4AAcZgW.jpg', 'url': 'https://t.co/rd7a0xRyWZ', 'display_url': 'pic.twitter.com/rd7a0xRyWZ', 'expanded_url': 'https://twitter.com/MissionaryJapan/status/1247903877686366211/photo/1', 'type': 'photo', 'sizes': {'thumb': {'w': 150, 'h': 150, 'resize': 'crop'}, 'small': {'w': 680, 'h': 348, 'resize': 'fit'}, 'large': {'w': 1132, 'h': 579, 'resize': 'fit'}, 'medium': {'w': 1132, 'h': 579, 'resize': 'fit'}}}, {'id': 1247903870518300673, 'id_str': '1247903870518300673', 'indices': [289, 312], 'media_url': 'http://pbs.twimg.com/media/EVFx9WQUEAEzf9S.jpg', 'media_url_https': 'https://pbs.twimg.com/media/EVFx9WQUEAEzf9S.jpg', 'url': 'https://t.co/rd7a0xRyWZ', 'display_url': 'pic.twitter.com/rd7a0xRyWZ', 'expanded_url': 'https://twitter.com/MissionaryJapan/status/1247903877686366211/photo/1', 'type': 'photo', 'sizes': {'thumb': {'w': 150, 'h': 150, 'resize': 'crop'}, 'medium': {'w': 911, 'h': 589, 'resize': 'fit'}, 'small': {'w': 680, 'h': 440, 'resize': 'fit'}, 'large': {'w': 911, 'h': 589, 'resize': 'fit'}}}, {'id': 1247903870941970437, 'id_str': '1247903870941970437', 'indices': [289, 312], 'media_url': 'http://pbs.twimg.com/media/EVFx9X1UwAUnDiA.jpg', 'media_url_https': 'https://pbs.twimg.com/media/EVFx9X1UwAUnDiA.jpg', 'url': 'https://t.co/rd7a0xRyWZ', 'display_url': 'pic.twitter.com/rd7a0xRyWZ', 'expanded_url': 'https://twitter.com/MissionaryJapan/status/1247903877686366211/photo/1', 'type': 'photo', 'sizes': {'thumb': {'w': 150, 'h': 150, 'resize': 'crop'}, 'small': {'w': 680, 'h': 309, 'resize': 'fit'}, 'medium': {'w': 1137, 'h': 516, 'resize': 'fit'}, 'large': {'w': 1137, 'h': 516, 'resize': 'fit'}}}]}","<a href=""https://mobile.twitter.com"" rel=""nofollow"">Twitter Web App</a>",,,,,,"{'id': 56334156, 'id_str': '56334156', 'name': 'Armageddon Apocalyps', 'screen_name': 'MissionaryJapan', 'location': 'Human Race Survival Resistance', 'description': ""Old Twitter Articles https://t.co/oXZHP0GvsH ・ Residence: Illuminati's Radiation Super Contamination Area ・ Job: Volunteer Worker & Missionary To Hebrew Remnant"", 'url': 'https://t.co/6q9ea9PvdA', 'entities': {'url': {'urls': [{'url': 'https://t.co/6q9ea9PvdA', 'expanded_url': 'https://www.facebook.com/profile.php?id=100018513877047', 'display_url': 'facebook.com/profile.php?id…', 'indices': [0, 23]}]}, 'description': {'urls': [{'url': 'https://t.co/oXZHP0GvsH', 'expanded_url': 'https://humanracesurvivalresistance.wordpress.com/', 'display_url': '…nracesurvivalresistance.wordpress.com', 'indices': [21, 44]}]}}, 'protected': False, 'followers_count': 2893, 'friends_count': 1857, 'listed_count': 58, 'created_at': 'Mon Jul 13 09:47:20 +0000 2009', 'favourites_count': 203, 'utc_offset': None, 'time_zone': None, 'geo_enabled': False, 'verified': False, 'statuses_count': 222514, 'lang': None, 'contributors_enabled': False, 'is_translator': False, 'is_translation_enabled': False, 'profile_background_color': 'BAF5C8', 'profile_background_image_url': 'http://abs.twimg.com/images/themes/theme3/bg.gif', 'profile_background_image_url_https': 'https://abs.twimg.com/images/themes/theme3/bg.gif', 'profile_background_tile': True, 'profile_image_url': 'http://pbs.twimg.com/profile_images/924259051533303808/8UbEiO80_normal.jpg', 'profile_image_url_https': 'https://pbs.twimg.com/profile_images/924259051533303808/8UbEiO80_normal.jpg', 'profile_banner_url': 'https://pbs.twimg.com/profile_banners/56334156/1509551095', 'profile_link_color': '18A173', 'profile_sidebar_border_color': 'FFFFFF', 'profile_sidebar_fill_color': 'DDF5D0', 'profile_text_color': '095C3B', 'profile_use_background_image': True, 'has_extended_profile': False, 'default_profile': False, 'default_profile_image': False, 'following': False, 'follow_request_sent': False, 'notifications': False, 'translator_type': 'none'}",,,,,False,,,,,1,2,False,False,False,en,1.0
5861,492,Mon Apr 20 18:16:09 +0000 2020,1252300035867303936,1252300035867303936,Jesus Christ Christian Bible Prophecy News - Love Win Model Hot Lifestyle: Humans falling down dead are from 5G &amp; not COVID-19 Coronavirus. Thousands birds &amp; fish dead. Fallen angels see humans as test specimen lab rats for 5G weapon. Donald Trump will be legalizing NWO execution https://t.co/WnHKCkJlDC,False,"[0, 288]","{'hashtags': [], 'symbols': [], 'user_mentions': [], 'urls': [], 'media': [{'id': 1252300021346603008, 'id_str': '1252300021346603008', 'indices': [289, 312], 'media_url': 'http://pbs.twimg.com/media/EWEQPASUEAA8l2w.jpg', 'media_url_https': 'https://pbs.twimg.com/media/EWEQPASUEAA8l2w.jpg', 'url': 'https://t.co/WnHKCkJlDC', 'display_url': 'pic.twitter.com/WnHKCkJlDC', 'expanded_url': 'https://twitter.com/MissionaryJapan/status/1252300035867303936/photo/1', 'type': 'photo', 'sizes': {'thumb': {'w': 150, 'h': 150, 'resize': 'crop'}, 'small': {'w': 680, 'h': 388, 'resize': 'fit'}, 'medium': {'w': 1191, 'h': 680, 'resize': 'fit'}, 'large': {'w': 1191, 'h': 680, 'resize': 'fit'}}}]}","{'media': [{'id': 1252300021346603008, 'id_str': '1252300021346603008', 'indices': [289, 312], 'media_url': 'http://pbs.twimg.com/media/EWEQPASUEAA8l2w.jpg', 'media_url_https': 'https://pbs.twimg.com/media/EWEQPASUEAA8l2w.jpg', 'url': 'https://t.co/WnHKCkJlDC', 'display_url': 'pic.twitter.com/WnHKCkJlDC', 'expanded_url': 'https://twitter.com/MissionaryJapan/status/1252300035867303936/photo/1', 'type': 'photo', 'sizes': {'thumb': {'w': 150, 'h': 150, 'resize': 'crop'}, 'small': {'w': 680, 'h': 388, 'resize': 'fit'}, 'medium': {'w': 1191, 'h': 680, 'resize': 'fit'}, 'large': {'w': 1191, 'h': 680, 'resize': 'fit'}}}, {'id': 1252300021677961216, 'id_str': '1252300021677961216', 'indices': [289, 312], 'media_url': 'http://pbs.twimg.com/media/EWEQPBhUMAAtTeb.jpg', 'media_url_https': 'https://pbs.twimg.com/media/EWEQPBhUMAAtTeb.jpg', 'url': 'https://t.co/WnHKCkJlDC', 'display_url': 'pic.twitter.com/WnHKCkJlDC', 'expanded_url': 'https://twitter.com/MissionaryJapan/status/1252300035867303936/photo/1', 'type': 'photo', 'sizes': {'thumb': {'w': 150, 'h': 150, 'resize': 'crop'}, 'small': {'w': 680, 'h': 348, 'resize': 'fit'}, 'large': {'w': 1132, 'h': 579, 'resize': 'fit'}, 'medium': {'w': 1132, 'h': 579, 'resize': 'fit'}}}, {'id': 1252300022495899650, 'id_str': '1252300022495899650', 'indices': [289, 312], 'media_url': 'http://pbs.twimg.com/media/EWEQPEkU8AIkVVG.jpg', 'media_url_https': 'https://pbs.twimg.com/media/EWEQPEkU8AIkVVG.jpg', 'url': 'https://t.co/WnHKCkJlDC', 'display_url': 'pic.twitter.com/WnHKCkJlDC', 'expanded_url': 'https://twitter.com/MissionaryJapan/status/1252300035867303936/photo/1', 'type': 'photo', 'sizes': {'thumb': {'w': 150, 'h': 150, 'resize': 'crop'}, 'medium': {'w': 911, 'h': 589, 'resize': 'fit'}, 'small': {'w': 680, 'h': 440, 'resize': 'fit'}, 'large': {'w': 911, 'h': 589, 'resize': 'fit'}}}, {'id': 1252300023045316608, 'id_str': '1252300023045316608', 'indices': [289, 312], 'media_url': 'http://pbs.twimg.com/media/EWEQPGnUYAAr5aV.jpg', 'media_url_https': 'https://pbs.twimg.com/media/EWEQPGnUYAAr5aV.jpg', 'url': 'https://t.co/WnHKCkJlDC', 'display_url': 'pic.twitter.com/WnHKCkJlDC', 'expanded_url': 'https://twitter.com/MissionaryJapan/status/1252300035867303936/photo/1', 'type': 'photo', 'sizes': {'thumb': {'w': 150, 'h': 150, 'resize': 'crop'}, 'small': {'w': 680, 'h': 309, 'resize': 'fit'}, 'medium': {'w': 1137, 'h': 516, 'resize': 'fit'}, 'large': {'w': 1137, 'h': 516, 'resize': 'fit'}}}]}","<a href=""https://mobile.twitter.com"" rel=""nofollow"">Twitter Web App</a>",,,,,,"{'id': 56334156, 'id_str': '56334156', 'name': 'Armageddon Apocalyps', 'screen_name': 'MissionaryJapan', 'location': 'Human Race Survival Resistance', 'description': ""Old Twitter Articles https://t.co/oXZHP0GvsH ・ Residence: Illuminati's Radiation Super Contamination Area ・ Job: Volunteer Worker & Missionary To Hebrew Remnant"", 'url': 'https://t.co/6q9ea9PvdA', 'entities': {'url': {'urls': [{'url': 'https://t.co/6q9ea9PvdA', 'expanded_url': 'https://www.facebook.com/profile.php?id=100018513877047', 'display_url': 'facebook.com/profile.php?id…', 'indices': [0, 23]}]}, 'description': {'urls': [{'url': 'https://t.co/oXZHP0GvsH', 'expanded_url': 'https://humanracesurvivalresistance.wordpress.com/', 'display_url': '…nracesurvivalresistance.wordpress.com', 'indices': [21, 44]}]}}, 'protected': False, 'followers_count': 2893, 'friends_count': 1857, 'listed_count': 58, 'created_at': 'Mon Jul 13 09:47:20 +0000 2009', 'favourites_count': 203, 'utc_offset': None, 'time_zone': None, 'geo_enabled': False, 'verified': False, 'statuses_count': 222514, 'lang': None, 'contributors_enabled': False, 'is_translator': False, 'is_translation_enabled': False, 'profile_background_color': 'BAF5C8', 'profile_background_image_url': 'http://abs.twimg.com/images/themes/theme3/bg.gif', 'profile_background_image_url_https': 'https://abs.twimg.com/images/themes/theme3/bg.gif', 'profile_background_tile': True, 'profile_image_url': 'http://pbs.twimg.com/profile_images/924259051533303808/8UbEiO80_normal.jpg', 'profile_image_url_https': 'https://pbs.twimg.com/profile_images/924259051533303808/8UbEiO80_normal.jpg', 'profile_banner_url': 'https://pbs.twimg.com/profile_banners/56334156/1509551095', 'profile_link_color': '18A173', 'profile_sidebar_border_color': 'FFFFFF', 'profile_sidebar_fill_color': 'DDF5D0', 'profile_text_color': '095C3B', 'profile_use_background_image': True, 'has_extended_profile': False, 'default_profile': False, 'default_profile_image': False, 'following': False, 'follow_request_sent': False, 'notifications': False, 'translator_type': 'none'}",,,,,False,,,,,0,0,False,False,False,en,2.0
539,539,Mon Apr 06 10:04:10 +0000 2020,1247102794231771136,1247102794231771136,"#5G #COVID19au #auspol
Hitler escaped to Argentina where he developed 5G technology in cahoots with Mengele. They built COVID19 into the technology and withheld its release until 2020 whereby their grandchildren unleashed both on an unsuspecting world",False,"[0, 251]","{'hashtags': [{'text': '5G', 'indices': [0, 3]}, {'text': 'COVID19au', 'indices': [4, 14]}, {'text': 'auspol', 'indices': [15, 22]}], 'symbols': [], 'user_mentions': [], 'urls': []}",,"<a href=""https://mobile.twitter.com"" rel=""nofollow"">Twitter Web App</a>",,,,,,"{'id': 2858559247, 'id_str': '2858559247', 'name': 'ianmax60', 'screen_name': 'ianmax54', 'location': 'Sydney, New South Wales', 'description': 'Et mea messis errit. Virtus autem corruptibilis est. Your inability to understand science is not an argument against it. Live on Dharawal land.', 'url': None, 'entities': {'description': {'urls': []}}, 'protected': False, 'followers_count': 331, 'friends_count': 585, 'listed_count': 0, 'created_at': 'Thu Oct 16 20:40:29 +0000 2014', 'favourites_count': 12391, 'utc_offset': None, 'time_zone': None, 'geo_enabled': False, 'verified': False, 'statuses_count': 16369, 'lang': None, 'contributors_enabled': False, 'is_translator': False, 'is_translation_enabled': False, 'profile_background_color': 'C0DEED', 'profile_background_image_url': 'http://abs.twimg.com/images/themes/theme1/bg.png', 'profile_background_image_url_https': 'https://abs.twimg.com/images/themes/theme1/bg.png', 'profile_background_tile': False, 'profile_image_url': 'http://pbs.twimg.com/profile_images/1070903895021375488/GmIb13Wc_normal.jpg', 'profile_image_url_https': 'https://pbs.twimg.com/profile_images/1070903895021375488/GmIb13Wc_normal.jpg', 'profile_link_color': '1DA1F2', 'profile_sidebar_border_color': 'C0DEED', 'profile_sidebar_fill_color': 'DDEEF6', 'profile_text_color': '333333', 'profile_use_background_image': True, 'has_extended_profile': True, 'default_profile': True, 'default_profile_image': False, 'following': False, 'follow_request_sent': False, 'notifications': False, 'translator_type': 'none'}",,,,,False,,,,,0,3,False,False,,en,1.0
2434,1277,Mon Apr 06 11:36:29 +0000 2020,1247126026385154048,1247126026385154048,"@Josh12Marley @doogie73 #5G #COVID19au #auspol
Hitler escaped to Argentina where he developed 5G technology in cahoots with Mengele. They built COVID19 into the technology and withheld its release until 2020 whereby their grandchildren unleashed both on an unsuspecting world",False,"[24, 275]","{'hashtags': [{'text': '5G', 'indices': [24, 27]}, {'text': 'COVID19au', 'indices': [28, 38]}, {'text': 'auspol', 'indices': [39, 46]}], 'symbols': [], 'user_mentions': [{'screen_name': 'doogie73', 'name': '💧 Dougie', 'id': 74738759, 'id_str': '74738759', 'indices': [14, 23]}], 'urls': []}",,"<a href=""https://mobile.twitter.com"" rel=""nofollow"">Twitter Web App</a>",1.2460360625788436e+18,1246036062578843649,1339525634.0,1339525634,NoveltyBobble12,"{'id': 2858559247, 'id_str': '2858559247', 'name': 'ianmax60', 'screen_name': 'ianmax54', 'location': 'Sydney, New South Wales', 'description': 'Et mea messis errit. Virtus autem corruptibilis est. Your inability to understand science is not an argument against it. Live on Dharawal land.', 'url': None, 'entities': {'description': {'urls': []}}, 'protected': False, 'followers_count': 331, 'friends_count': 585, 'listed_count': 0, 'created_at': 'Thu Oct 16 20:40:29 +0000 2014', 'favourites_count': 12391, 'utc_offset': None, 'time_zone': None, 'geo_enabled': False, 'verified': False, 'statuses_count': 16369, 'lang': None, 'contributors_enabled': False, 'is_translator': False, 'is_translation_enabled': False, 'profile_background_color': 'C0DEED', 'profile_background_image_url': 'http://abs.twimg.com/images/themes/theme1/bg.png', 'profile_background_image_url_https': 'https://abs.twimg.com/images/themes/theme1/bg.png', 'profile_background_tile': False, 'profile_image_url': 'http://pbs.twimg.com/profile_images/1070903895021375488/GmIb13Wc_normal.jpg', 'profile_image_url_https': 'https://pbs.twimg.com/profile_images/1070903895021375488/GmIb13Wc_normal.jpg', 'profile_link_color': '1DA1F2', 'profile_sidebar_border_color': 'C0DEED', 'profile_sidebar_fill_color': 'DDEEF6', 'profile_text_color': '333333', 'profile_use_background_image': True, 'has_extended_profile': True, 'default_profile': True, 'default_profile_image': False, 'following': False, 'follow_request_sent': False, 'notifications': False, 'translator_type': 'none'}",,,,,False,,,,,0,0,False,False,,en,3.0
698,698,Tue Mar 17 06:10:24 +0000 2020,1239796207788097538,1239796207788097538,A #5G vehicle collects signal during a live broadcast of #cherry blossoms at Wuhan University in virus-hit #Hubei province. The university organized a ten-day live broadcast starting Monday to showcase #spring in the campus. #coronavirus #Covid_19 https://t.co/b8pvDFaJZb,False,"[0, 271]","{'hashtags': [{'text': '5G', 'indices': [2, 5]}, {'text': 'cherry', 'indices': [57, 64]}, {'text': 'Hubei', 'indices': [107, 113]}, {'text': 'spring', 'indices': [202, 209]}, {'text': 'coronavirus', 'indices': [225, 237]}, {'text': 'Covid_19', 'indices': [238, 247]}], 'symbols': [], 'user_mentions': [], 'urls': [], 'media': [{'id': 1239791339035713537, 'id_str': '1239791339035713537', 'indices': [248, 271], 'media_url': 'http://pbs.twimg.com/media/ETSfp3bUYAEHeMT.png', 'media_url_https': 'https://pbs.twimg.com/media/ETSfp3bUYAEHeMT.png', 'url': 'https://t.co/b8pvDFaJZb', 'display_url': 'pic.twitter.com/b8pvDFaJZb', 'expanded_url': 'https://twitter.com/ChinaDaily/status/1239793855379038208/photo/1', 'type': 'photo', 'sizes': {'large': {'w': 899, 'h': 561, 'resize': 'fit'}, 'medium': {'w': 899, 'h': 561, 'resize': 'fit'}, 'small': {'w': 680, 'h': 424, 'resize': 'fit'}, 'thumb': {'w': 150, 'h': 150, 'resize': 'crop'}}, 'source_status_id': 1239793855379038208, 'source_status_id_str': '1239793855379038208', 'source_user_id': 87775422, 'source_user_id_str': '87775422'}]}","{'media': [{'id': 1239791339035713537, 'id_str': '1239791339035713537', 'indices': [248, 271], 'media_url': 'http://pbs.twimg.com/media/ETSfp3bUYAEHeMT.png', 'media_url_https': 'https://pbs.twimg.com/media/ETSfp3bUYAEHeMT.png', 'url': 'https://t.co/b8pvDFaJZb', 'display_url': 'pic.twitter.com/b8pvDFaJZb', 'expanded_url': 'https://twitter.com/ChinaDaily/status/1239793855379038208/photo/1', 'type': 'photo', 'sizes': {'large': {'w': 899, 'h': 561, 'resize': 'fit'}, 'medium': {'w': 899, 'h': 561, 'resize': 'fit'}, 'small': {'w': 680, 'h': 424, 'resize': 'fit'}, 'thumb': {'w': 150, 'h': 150, 'resize': 'crop'}}, 'source_status_id': 1239793855379038208, 'source_status_id_str': '1239793855379038208', 'source_user_id': 87775422, 'source_user_id_str': '87775422'}, {'id': 1239791341992730626, 'id_str': '1239791341992730626', 'indices': [248, 271], 'media_url': 'http://pbs.twimg.com/media/ETSfqCcU4AIijDz.png', 'media_url_https': 'https://pbs.twimg.com/media/ETSfqCcU4AIijDz.png', 'url': 'https://t.co/b8pvDFaJZb', 'display_url': 'pic.twitter.com/b8pvDFaJZb', 'expanded_url': 'https://twitter.com/ChinaDaily/status/1239793855379038208/photo/1', 'type': 'photo', 'sizes': {'medium': {'w': 900, 'h': 600, 'resize': 'fit'}, 'large': {'w': 900, 'h': 600, 'resize': 'fit'}, 'small': {'w': 680, 'h': 453, 'resize': 'fit'}, 'thumb': {'w': 150, 'h': 150, 'resize': 'crop'}}, 'source_status_id': 1239793855379038208, 'source_status_id_str': '1239793855379038208', 'source_user_id': 87775422, 'source_user_id_str': '87775422'}, {'id': 1239791344580624384, 'id_str': '1239791344580624384', 'indices': [248, 271], 'media_url': 'http://pbs.twimg.com/media/ETSfqMFVAAAPPpO.png', 'media_url_https': 'https://pbs.twimg.com/media/ETSfqMFVAAAPPpO.png', 'url': 'https://t.co/b8pvDFaJZb', 'display_url': 'pic.twitter.com/b8pvDFaJZb', 'expanded_url': 'https://twitter.com/ChinaDaily/status/1239793855379038208/photo/1', 'type': 'photo', 'sizes': {'large': {'w': 900, 'h': 600, 'resize': 'fit'}, 'medium': {'w': 900, 'h': 600, 'resize': 'fit'}, 'thumb': {'w': 150, 'h': 150, 'resize': 'crop'}, 'small': {'w': 680, 'h': 453, 'resize': 'fit'}}, 'source_status_id': 1239793855379038208, 'source_status_id_str': '1239793855379038208', 'source_user_id': 87775422, 'source_user_id_str': '87775422'}, {'id': 1239791347894120450, 'id_str': '1239791347894120450', 'indices': [248, 271], 'media_url': 'http://pbs.twimg.com/media/ETSfqYbU8AIDAU0.png', 'media_url_https': 'https://pbs.twimg.com/media/ETSfqYbU8AIDAU0.png', 'url': 'https://t.co/b8pvDFaJZb', 'display_url': 'pic.twitter.com/b8pvDFaJZb', 'expanded_url': 'https://twitter.com/ChinaDaily/status/1239793855379038208/photo/1', 'type': 'photo', 'sizes': {'medium': {'w': 900, 'h': 579, 'resize': 'fit'}, 'small': {'w': 680, 'h': 437, 'resize': 'fit'}, 'thumb': {'w': 150, 'h': 150, 'resize': 'crop'}, 'large': {'w': 900, 'h': 579, 'resize': 'fit'}}, 'source_status_id': 1239793855379038208, 'source_status_id_str': '1239793855379038208', 'source_user_id': 87775422, 'source_user_id_str': '87775422'}]}","<a href=""https://www.stoundi.com"" rel=""nofollow"">Global Analytica</a>",,,,,,"{'id': 3059457425, 'id_str': '3059457425', 'name': 'Global Analytica', 'screen_name': 'AnalyticaGlobal', 'location': 'Worldwide', 'description': 'Providing insightful analysis, interviews and data on Politics, Business, Sports, Science and Technology', 'url': None, 'entities': {'description': {'urls': []}}, 'protected': False, 'followers_count': 2492, 'friends_count': 0, 'listed_count': 49, 'created_at': 'Tue Feb 24 16:56:10 +0000 2015', 'favourites_count': 4, 'utc_offset': None, 'time_zone': None, 'geo_enabled': False, 'verified': False, 'statuses_count': 624728, 'lang': None, 'contributors_enabled': False, 'is_translator': False, 'is_translation_enabled': False, 'profile_background_color': 'C0DEED', 'profile_background_image_url': 'http://abs.twimg.com/images/themes/theme1/bg.png', 'profile_background_image_url_https': 'https://abs.twimg.com/images/themes/theme1/bg.png', 'profile_background_tile': False, 'profile_image_url': 'http://pbs.twimg.com/profile_images/1054338193477251073/l9DycUxa_normal.jpg', 'profile_image_url_https': 'https://pbs.twimg.com/profile_images/1054338193477251073/l9DycUxa_normal.jpg', 'profile_banner_url': 'https://pbs.twimg.com/profile_banners/3059457425/1540208751', 'profile_link_color': '1DA1F2', 'profile_sidebar_border_color': 'C0DEED', 'profile_sidebar_fill_color': 'DDEEF6', 'profile_text_color': '333333', 'profile_use_background_image': True, 'has_extended_profile': False, 'default_profile': True, 'default_profile_image': False, 'following': False, 'follow_request_sent': False, 'notifications': False, 'translator_type': 'none'}",,,,,False,,,,,0,1,False,False,False,en,1.0
1946,789,Tue Mar 17 23:45:03 +0000 2020,1240061617640853505,1240061617640853505,A #5G vehicle collects signal during a live broadcast of #cherry blossoms at Wuhan University in virus-hit #Hubei province. The university organized a ten-day live broadcast starting Monday to showcase #spring in the campus. #coronavirus #Covid_19 https://t.co/KF5jpIB5lU,False,"[0, 247]","{'hashtags': [{'text': '5G', 'indices': [2, 5]}, {'text': 'cherry', 'indices': [57, 64]}, {'text': 'Hubei', 'indices': [107, 113]}, {'text': 'spring', 'indices': [202, 209]}, {'text': 'coronavirus', 'indices': [225, 237]}, {'text': 'Covid_19', 'indices': [238, 247]}], 'symbols': [], 'user_mentions': [], 'urls': [], 'media': [{'id': 1240059098600636416, 'id_str': '1240059098600636416', 'indices': [248, 271], 'media_url': 'http://pbs.twimg.com/media/ETWTLhiVAAAgCiF.png', 'media_url_https': 'https://pbs.twimg.com/media/ETWTLhiVAAAgCiF.png', 'url': 'https://t.co/KF5jpIB5lU', 'display_url': 'pic.twitter.com/KF5jpIB5lU', 'expanded_url': 'https://twitter.com/ChinaDaily/status/1240061617640853505/photo/1', 'type': 'photo', 'sizes': {'large': {'w': 900, 'h': 600, 'resize': 'fit'}, 'medium': {'w': 900, 'h': 600, 'resize': 'fit'}, 'thumb': {'w': 150, 'h': 150, 'resize': 'crop'}, 'small': {'w': 680, 'h': 453, 'resize': 'fit'}}}]}","{'media': [{'id': 1240059098600636416, 'id_str': '1240059098600636416', 'indices': [248, 271], 'media_url': 'http://pbs.twimg.com/media/ETWTLhiVAAAgCiF.png', 'media_url_https': 'https://pbs.twimg.com/media/ETWTLhiVAAAgCiF.png', 'url': 'https://t.co/KF5jpIB5lU', 'display_url': 'pic.twitter.com/KF5jpIB5lU', 'expanded_url': 'https://twitter.com/ChinaDaily/status/1240061617640853505/photo/1', 'type': 'photo', 'sizes': {'large': {'w': 900, 'h': 600, 'resize': 'fit'}, 'medium': {'w': 900, 'h': 600, 'resize': 'fit'}, 'thumb': {'w': 150, 'h': 150, 'resize': 'crop'}, 'small': {'w': 680, 'h': 453, 'resize': 'fit'}}}, {'id': 1240059101431746561, 'id_str': '1240059101431746561', 'indices': [248, 271], 'media_url': 'http://pbs.twimg.com/media/ETWTLsFUUAE6wxz.png', 'media_url_https': 'https://pbs.twimg.com/media/ETWTLsFUUAE6wxz.png', 'url': 'https://t.co/KF5jpIB5lU', 'display_url': 'pic.twitter.com/KF5jpIB5lU', 'expanded_url': 'https://twitter.com/ChinaDaily/status/1240061617640853505/photo/1', 'type': 'photo', 'sizes': {'medium': {'w': 900, 'h': 579, 'resize': 'fit'}, 'small': {'w': 680, 'h': 437, 'resize': 'fit'}, 'thumb': {'w': 150, 'h': 150, 'resize': 'crop'}, 'large': {'w': 900, 'h': 579, 'resize': 'fit'}}}, {'id': 1240059104598474753, 'id_str': '1240059104598474753', 'indices': [248, 271], 'media_url': 'http://pbs.twimg.com/media/ETWTL34UwAEE_xN.png', 'media_url_https': 'https://pbs.twimg.com/media/ETWTL34UwAEE_xN.png', 'url': 'https://t.co/KF5jpIB5lU', 'display_url': 'pic.twitter.com/KF5jpIB5lU', 'expanded_url': 'https://twitter.com/ChinaDaily/status/1240061617640853505/photo/1', 'type': 'photo', 'sizes': {'large': {'w': 899, 'h': 561, 'resize': 'fit'}, 'medium': {'w': 899, 'h': 561, 'resize': 'fit'}, 'small': {'w': 680, 'h': 424, 'resize': 'fit'}, 'thumb': {'w': 150, 'h': 150, 'resize': 'crop'}}}, {'id': 1240059107706429445, 'id_str': '1240059107706429445', 'indices': [248, 271], 'media_url': 'http://pbs.twimg.com/media/ETWTMDdUYAUvEfC.png', 'media_url_https': 'https://pbs.twimg.com/media/ETWTMDdUYAUvEfC.png', 'url': 'https://t.co/KF5jpIB5lU', 'display_url': 'pic.twitter.com/KF5jpIB5lU', 'expanded_url': 'https://twitter.com/ChinaDaily/status/1240061617640853505/photo/1', 'type': 'photo', 'sizes': {'medium': {'w': 900, 'h': 600, 'resize': 'fit'}, 'large': {'w': 900, 'h': 600, 'resize': 'fit'}, 'small': {'w': 680, 'h': 453, 'resize': 'fit'}, 'thumb': {'w': 150, 'h': 150, 'resize': 'crop'}}}]}","<a href=""https://publisher.yiwanghutong.cn"" rel=""nofollow"">TeamSight Publisher</a>",,,,,,"{'id': 87775422, 'id_str': '87775422', 'name': 'China Daily', 'screen_name': 'ChinaDaily', 'location': 'Beijing, China', 'description': 'Start a conversation as we share news and analysis from #China and beyond.', 'url': None, 'entities': {'description': {'urls': []}}, 'protected': False, 'followers_count': 4392136, 'friends_count': 540, 'listed_count': 6593, 'created_at': 'Thu Nov 05 20:30:10 +0000 2009', 'favourites_count': 627, 'utc_offset': None, 'time_zone': None, 'geo_enabled': False, 'verified': True, 'statuses_count': 131388, 'lang': None, 'contributors_enabled': False, 'is_translator': False, 'is_translation_enabled': False, 'profile_background_color': 'EBEBEB', 'profile_background_image_url': 'http://abs.twimg.com/images/themes/theme7/bg.gif', 'profile_background_image_url_https': 'https://abs.twimg.com/images/themes/theme7/bg.gif', 'profile_background_tile': True, 'profile_image_url': 'http://pbs.twimg.com/profile_images/1246468667396612096/qPFdslyM_normal.jpg', 'profile_image_url_https': 'https://pbs.twimg.com/profile_images/1246468667396612096/qPFdslyM_normal.jpg', 'profile_banner_url': 'https://pbs.twimg.com/profile_banners/87775422/1593754634', 'profile_link_color': '0E5CB5', 'profile_sidebar_border_color': 'DFDFDF', 'profile_sidebar_fill_color': 'F3F3F3', 'profile_text_color': '333333', 'profile_use_background_image': True, 'has_extended_profile': False, 'default_profile': False, 'default_profile_image': False, 'following': False, 'follow_request_sent': False, 'notifications': False, 'translator_type': 'none'}",,,,,False,,,,,20,59,False,False,False,en,3.0
989,989,Tue Apr 07 16:51:52 +0000 2020,1247567781933002752,1247567781933002752,Governor Newsom: Please Do Not Deploy 5G / Wireless Installations in Our Schools During Quarantine! • Children's Health Defense https://t.co/Gv7RcUgp8N,False,"[0, 151]","{'hashtags': [], 'symbols': [], 'user_mentions': [], 'urls': [{'url': 'https://t.co/Gv7RcUgp8N', 'expanded_url': 'https://childrenshealthdefense.org/news/governor-newsom-please-do-not-deploy-5g-wireless-installations-in-our-schools-during-quarantine/', 'display_url': 'childrenshealthdefense.org/news/governor-…', 'indices': [128, 151]}]}",,"<a href=""https://mobile.twitter.com"" rel=""nofollow"">Twitter Web App</a>",,,,,,"{'id': 540194877, 'id_str': '540194877', 'name': 'kristen h', 'screen_name': 'kristenhinkson', 'location': '', 'description': 'God loved the world so much that he gave his only son. Whoever believes in him shall be saved. John 3:16', 'url': 'https://t.co/LlxKxd4SIh', 'entities': {'url': {'urls': [{'url': 'https://t.co/LlxKxd4SIh', 'expanded_url': 'https://www.bitchute.com/video/b40mEcnfkCe1/', 'display_url': 'bitchute.com/video/b40mEcnf…', 'indices': [0, 23]}]}, 'description': {'urls': []}}, 'protected': False, 'followers_count': 4548, 'friends_count': 2287, 'listed_count': 193, 'created_at': 'Thu Mar 29 16:37:41 +0000 2012', 'favourites_count': 7452, 'utc_offset': None, 'time_zone': None, 'geo_enabled': True, 'verified': False, 'statuses_count': 214869, 'lang': None, 'contributors_enabled': False, 'is_translator': False, 'is_translation_enabled': False, 'profile_background_color': '022330', 'profile_background_image_url': 'http://abs.twimg.com/images/themes/theme15/bg.png', 'profile_background_image_url_https': 'https://abs.twimg.com/images/themes/theme15/bg.png', 'profile_background_tile': False, 'profile_image_url': 'http://pbs.twimg.com/profile_images/1242631231608627201/wXglYsc__normal.jpg', 'profile_image_url_https': 'https://pbs.twimg.com/profile_images/1242631231608627201/wXglYsc__normal.jpg', 'profile_banner_url': 'https://pbs.twimg.com/profile_banners/540194877/1594600202', 'profile_link_color': '0084B4', 'profile_sidebar_border_color': 'A8C7F7', 'profile_sidebar_fill_color': 'C0DFEC', 'profile_text_color': '333333', 'profile_use_background_image': True, 'has_extended_profile': False, 'default_profile': False, 'default_profile_image': False, 'following': False, 'follow_request_sent': False, 'notifications': False, 'translator_type': 'none'}",,,,,False,,,,,0,0,False,False,False,en,1.0
1537,380,Wed Mar 25 19:11:52 +0000 2020,1242891972169302018,1242891972169302018,Governor Newsom: Please Do Not Deploy 5G / Wireless Installations in Our Schools During Quarantine! • Children's Health Defense https://t.co/nQYPJ0HbXl,False,"[0, 151]","{'hashtags': [], 'symbols': [], 'user_mentions': [], 'urls': [{'url': 'https://t.co/nQYPJ0HbXl', 'expanded_url': 'https://childrenshealthdefense.org/news/governor-newsom-please-do-not-deploy-5g-wireless-installations-in-our-schools-during-quarantine/', 'display_url': 'childrenshealthdefense.org/news/governor-…', 'indices': [128, 151]}]}",,"<a href=""http://twitter.com/download/iphone"" rel=""nofollow"">Twitter for iPhone</a>",,,,,,"{'id': 262756319, 'id_str': '262756319', 'name': 'Kathleen B', 'screen_name': 'KathleenJoy777', 'location': 'Chicago, IL', 'description': 'Love my God, Family & Country!!!!!!!!🇺🇸WWG1WGA🇺🇸 President Trump 2020🇺🇸The Great Awakening🇺🇸', 'url': None, 'entities': {'description': {'urls': []}}, 'protected': False, 'followers_count': 443, 'friends_count': 772, 'listed_count': 2, 'created_at': 'Tue Mar 08 18:03:29 +0000 2011', 'favourites_count': 26797, 'utc_offset': None, 'time_zone': None, 'geo_enabled': False, 'verified': False, 'statuses_count': 20355, 'lang': None, 'contributors_enabled': False, 'is_translator': False, 'is_translation_enabled': False, 'profile_background_color': 'C0DEED', 'profile_background_image_url': 'http://abs.twimg.com/images/themes/theme1/bg.png', 'profile_background_image_url_https': 'https://abs.twimg.com/images/themes/theme1/bg.png', 'profile_background_tile': False, 'profile_image_url': 'http://pbs.twimg.com/profile_images/1072361505000165376/lprEmY-Q_normal.jpg', 'profile_image_url_https': 'https://pbs.twimg.com/profile_images/1072361505000165376/lprEmY-Q_normal.jpg', 'profile_banner_url': 'https://pbs.twimg.com/profile_banners/262756319/1544505711', 'profile_link_color': '1DA1F2', 'profile_sidebar_border_color': 'C0DEED', 'profile_sidebar_fill_color': 'DDEEF6', 'profile_text_color': '333333', 'profile_use_background_image': True, 'has_extended_profile': False, 'default_profile': True, 'default_profile_image': False, 'following': False, 'follow_request_sent': False, 'notifications': False, 'translator_type': 'none'}",,,,,False,,,,,0,0,False,False,False,en,3.0
5405,36,Tue Mar 24 11:18:21 +0000 2020,1242410421379895296,1242410421379895296,Governor Newsom: Please Do Not Deploy 5G / Wireless Installations in Our Schools During Quarantine! • Children's Health Defense https://t.co/QVpNdm4Ox8,False,"[0, 151]","{'hashtags': [], 'symbols': [], 'user_mentions': [], 'urls': [{'url': 'https://t.co/QVpNdm4Ox8', 'expanded_url': 'https://childrenshealthdefense.org/news/governor-newsom-please-do-not-deploy-5g-wireless-installations-in-our-schools-during-quarantine/', 'display_url': 'childrenshealthdefense.org/news/governor-…', 'indices': [128, 151]}]}",,"<a href=""http://twitter.com/download/iphone"" rel=""nofollow"">Twitter for iPhone</a>",,,,,,"{'id': 407874523, 'id_str': '407874523', 'name': 'Marilyn Kaplan', 'screen_name': 'MarilynKaplan1', 'location': '', 'description': 'mother | activist | animal and nature lover l skeptic | green | but🍷 Unusual American TULSI2020 BERNIE2020 #FreeAssange', 'url': None, 'entities': {'description': {'urls': []}}, 'protected': False, 'followers_count': 259, 'friends_count': 735, 'listed_count': 31, 'created_at': 'Tue Nov 08 17:32:58 +0000 2011', 'favourites_count': 21170, 'utc_offset': None, 'time_zone': None, 'geo_enabled': False, 'verified': False, 'statuses_count': 12967, 'lang': None, 'contributors_enabled': False, 'is_translator': False, 'is_translation_enabled': False, 'profile_background_color': 'C0DEED', 'profile_background_image_url': 'http://abs.twimg.com/images/themes/theme1/bg.png', 'profile_background_image_url_https': 'https://abs.twimg.com/images/themes/theme1/bg.png', 'profile_background_tile': False, 'profile_image_url': 'http://pbs.twimg.com/profile_images/1634135693/mom-twitter_normal.jpg', 'profile_image_url_https': 'https://pbs.twimg.com/profile_images/1634135693/mom-twitter_normal.jpg', 'profile_link_color': '1DA1F2', 'profile_sidebar_border_color': 'C0DEED', 'profile_sidebar_fill_color': 'DDEEF6', 'profile_text_color': '333333', 'profile_use_background_image': True, 'has_extended_profile': False, 'default_profile': True, 'default_profile_image': False, 'following': False, 'follow_request_sent': False, 'notifications': False, 'translator_type': 'none'}",,,,,False,,,,,0,0,False,False,False,en,2.0
5730,361,Mon Mar 23 20:42:24 +0000 2020,1242189980660830211,1242189980660830211,"Governor Newsom: Please Do Not Deploy 5G / Wireless Installations in Our Schools During Quarantine!

https://t.co/gHyQQDETG6

#5GisON #SwitchItOff @GavinNewsom",False,"[0, 159]","{'hashtags': [{'text': '5GisON', 'indices': [126, 133]}, {'text': 'SwitchItOff', 'indices': [134, 146]}], 'symbols': [], 'user_mentions': [{'screen_name': 'GavinNewsom', 'name': 'Gavin Newsom', 'id': 11347122, 'id_str': '11347122', 'indices': [147, 159]}], 'urls': [{'url': 'https://t.co/gHyQQDETG6', 'expanded_url': 'https://bit.ly/3doloKf', 'display_url': 'bit.ly/3doloKf', 'indices': [101, 124]}]}",,"<a href=""https://mobile.twitter.com"" rel=""nofollow"">Twitter Web App</a>",,,,,,"{'id': 17178964, 'id_str': '17178964', 'name': 'Jeanine Susan Deal', 'screen_name': 'JeanineDeal', 'location': 'SW Michigan, USA, Earth', 'description': ""Injured by wireless radiofrequency microwave radiation.\n\nI'm not Russian and I'm not paid to do this.\n\n#Wireless #Health #Children #5G #COVIDtruth #HumanRights"", 'url': 'https://t.co/84rsqqA7oS', 'entities': {'url': {'urls': [{'url': 'https://t.co/84rsqqA7oS', 'expanded_url': 'http://jeaninedeal.blogspot.com/?m=1', 'display_url': 'jeaninedeal.blogspot.com/?m=1', 'indices': [0, 23]}]}, 'description': {'urls': []}}, 'protected': False, 'followers_count': 6301, 'friends_count': 3633, 'listed_count': 692, 'created_at': 'Wed Nov 05 02:59:07 +0000 2008', 'favourites_count': 31609, 'utc_offset': None, 'time_zone': None, 'geo_enabled': False, 'verified': False, 'statuses_count': 38970, 'lang': None, 'contributors_enabled': False, 'is_translator': False, 'is_translation_enabled': False, 'profile_background_color': '3B94D9', 'profile_background_image_url': 'http://abs.twimg.com/images/themes/theme1/bg.png', 'profile_background_image_url_https': 'https://abs.twimg.com/images/themes/theme1/bg.png', 'profile_background_tile': False, 'profile_image_url': 'http://pbs.twimg.com/profile_images/1235370063512981506/igKO3Zrm_normal.jpg', 'profile_image_url_https': 'https://pbs.twimg.com/profile_images/1235370063512981506/igKO3Zrm_normal.jpg', 'profile_banner_url': 'https://pbs.twimg.com/profile_banners/17178964/1535767612', 'profile_link_color': '3B94D9', 'profile_sidebar_border_color': '000000', 'profile_sidebar_fill_color': '000000', 'profile_text_color': '000000', 'profile_use_background_image': True, 'has_extended_profile': False, 'default_profile': False, 'default_profile_image': False, 'following': False, 'follow_request_sent': False, 'notifications': False, 'translator_type': 'none'}",,,,,False,,,,,17,15,False,False,False,en,2.0
317,317,Wed Apr 15 13:00:22 +0000 2020,1250408623781470208,1250408623781470208,"""As claims linking #5G technology and the spread of COVID-19 are mounting, the World Health Organization makes it clear that such claims have no scientific basis whatsoever."" #TeamEricsson https://t.co/dG88JkOjzO",False,"[0, 212]","{'hashtags': [{'text': '5G', 'indices': [19, 22]}, {'text': 'TeamEricsson', 'indices': [175, 188]}], 'symbols': [], 'user_mentions': [], 'urls': [{'url': 'https://t.co/dG88JkOjzO', 'expanded_url': 'https://t.eric.sn/2z3sWT3', 'display_url': 't.eric.sn/2z3sWT3', 'indices': [189, 212]}]}",,"<a href=""http://dynamicsignal.com/"" rel=""nofollow"">Dynamic Signal</a>",,,,,,"{'id': 39708516, 'id_str': '39708516', 'name': 'Kevin Boyle II', 'screen_name': 'kboyleii', 'location': 'Kansas City, MO', 'description': 'Telecom systems architect and family genealogist. I also enjoy playing baseball and hockey, and spending time with my wife and 3 kids.', 'url': None, 'entities': {'description': {'urls': []}}, 'protected': False, 'followers_count': 55, 'friends_count': 122, 'listed_count': 1, 'created_at': 'Wed May 13 07:27:35 +0000 2009', 'favourites_count': 141, 'utc_offset': None, 'time_zone': None, 'geo_enabled': False, 'verified': False, 'statuses_count': 3388, 'lang': None, 'contributors_enabled': False, 'is_translator': False, 'is_translation_enabled': False, 'profile_background_color': 'C0DEED', 'profile_background_image_url': 'http://abs.twimg.com/images/themes/theme1/bg.png', 'profile_background_image_url_https': 'https://abs.twimg.com/images/themes/theme1/bg.png', 'profile_background_tile': False, 'profile_image_url': 'http://pbs.twimg.com/profile_images/1309759295/KevWaving_normal.jpg', 'profile_image_url_https': 'https://pbs.twimg.com/profile_images/1309759295/KevWaving_normal.jpg', 'profile_link_color': '1DA1F2', 'profile_sidebar_border_color': 'C0DEED', 'profile_sidebar_fill_color': 'DDEEF6', 'profile_text_color': '333333', 'profile_use_background_image': True, 'has_extended_profile': False, 'default_profile': True, 'default_profile_image': False, 'following': False, 'follow_request_sent': False, 'notifications': False, 'translator_type': 'none'}",,,,,False,,,,,0,0,False,False,False,en,1.0
2872,1715,Wed Apr 15 12:04:57 +0000 2020,1250394678152724480,1250394678152724480,"""As claims linking #5G technology and the spread of COVID-19 are mounting, the World Health Organization makes it clear that such claims have no scientific basis whatsoever."" #TeamEricsson https://t.co/ODa5A6sNmB",False,"[0, 212]","{'hashtags': [{'text': '5G', 'indices': [19, 22]}, {'text': 'TeamEricsson', 'indices': [175, 188]}], 'symbols': [], 'user_mentions': [], 'urls': [{'url': 'https://t.co/ODa5A6sNmB', 'expanded_url': 'https://t.eric.sn/3abC5Wu', 'display_url': 't.eric.sn/3abC5Wu', 'indices': [189, 212]}]}",,"<a href=""http://dynamicsignal.com/"" rel=""nofollow"">Dynamic Signal</a>",,,,,,"{'id': 34365995, 'id_str': '34365995', 'name': 'Eugene H. Banks', 'screen_name': 'eugeniusbanks', 'location': 'Texas', 'description': 'Innovative thought leader on IOT, 5G, ICT, being a Dad, and Husband', 'url': 'http://t.co/rxBzUMMEnq', 'entities': {'url': {'urls': [{'url': 'http://t.co/rxBzUMMEnq', 'expanded_url': 'http://www.linkedin.com/profile/view?id=2970740&pid=3030825&authType=name&authToken=HwMF&trk=pbmap', 'display_url': 'linkedin.com/profile/view?i…', 'indices': [0, 22]}]}, 'description': {'urls': []}}, 'protected': False, 'followers_count': 853, 'friends_count': 282, 'listed_count': 16, 'created_at': 'Wed Apr 22 19:15:03 +0000 2009', 'favourites_count': 723, 'utc_offset': None, 'time_zone': None, 'geo_enabled': True, 'verified': False, 'statuses_count': 2749, 'lang': None, 'contributors_enabled': False, 'is_translator': False, 'is_translation_enabled': False, 'profile_background_color': 'C0DEED', 'profile_background_image_url': 'http://abs.twimg.com/images/themes/theme9/bg.gif', 'profile_background_image_url_https': 'https://abs.twimg.com/images/themes/theme9/bg.gif', 'profile_background_tile': True, 'profile_image_url': 'http://pbs.twimg.com/profile_images/937921305843613696/-yA9bpjj_normal.jpg', 'profile_image_url_https': 'https://pbs.twimg.com/profile_images/937921305843613696/-yA9bpjj_normal.jpg', 'profile_banner_url': 'https://pbs.twimg.com/profile_banners/34365995/1484893453', 'profile_link_color': '0084B4', 'profile_sidebar_border_color': 'FFFFFF', 'profile_sidebar_fill_color': '252429', 'profile_text_color': '666666', 'profile_use_background_image': True, 'has_extended_profile': False, 'default_profile': False, 'default_profile_image': False, 'following': False, 'follow_request_sent': False, 'notifications': False, 'translator_type': 'none'}",,,,,False,,,,,0,0,False,False,False,en,3.0
3543,2386,Wed Apr 15 13:01:36 +0000 2020,1250408934386446336,1250408934386446336,"Crazy myths on COVID-19 - Check out the WHO myth busting site - ""As claims linking #5G technology and the spread of COVID-19 are mounting, the World Health Organization makes it clear that such claims have no scientific basis whatsoever."" #TeamEricsson https://t.co/yj1FoJwg8u",False,"[0, 276]","{'hashtags': [{'text': '5G', 'indices': [83, 86]}, {'text': 'TeamEricsson', 'indices': [239, 252]}], 'symbols': [], 'user_mentions': [], 'urls': [{'url': 'https://t.co/yj1FoJwg8u', 'expanded_url': 'https://t.eric.sn/3ciuNBI', 'display_url': 't.eric.sn/3ciuNBI', 'indices': [253, 276]}]}",,"<a href=""http://dynamicsignal.com/"" rel=""nofollow"">Dynamic Signal</a>",,,,,,"{'id': 2361135199, 'id_str': '2361135199', 'name': 'Kelly Krick', 'screen_name': 'kellykrick1', 'location': 'USA', 'description': '', 'url': None, 'entities': {'description': {'urls': []}}, 'protected': False, 'followers_count': 74, 'friends_count': 94, 'listed_count': 0, 'created_at': 'Tue Feb 25 13:57:37 +0000 2014', 'favourites_count': 10236, 'utc_offset': None, 'time_zone': None, 'geo_enabled': True, 'verified': False, 'statuses_count': 1420, 'lang': None, 'contributors_enabled': False, 'is_translator': False, 'is_translation_enabled': False, 'profile_background_color': 'C0DEED', 'profile_background_image_url': 'http://abs.twimg.com/images/themes/theme1/bg.png', 'profile_background_image_url_https': 'https://abs.twimg.com/images/themes/theme1/bg.png', 'profile_background_tile': False, 'profile_image_url': 'http://pbs.twimg.com/profile_images/478153511050280961/5SveW1oh_normal.jpeg', 'profile_image_url_https': 'https://pbs.twimg.com/profile_images/478153511050280961/5SveW1oh_normal.jpeg', 'profile_banner_url': 'https://pbs.twimg.com/profile_banners/2361135199/1402672004', 'profile_link_color': '1DA1F2', 'profile_sidebar_border_color': 'C0DEED', 'profile_sidebar_fill_color': 'DDEEF6', 'profile_text_color': '333333', 'profile_use_background_image': True, 'has_extended_profile': False, 'default_profile': True, 'default_profile_image': False, 'following': False, 'follow_request_sent': False, 'notifications': False, 'translator_type': 'none'}",,,,,False,,,,,0,0,False,False,False,en,3.0
127,127,Thu Apr 02 20:11:24 +0000 2020,1245806056019820545,1245806056019820545,"@libertytarian @allidoisowen @HagmannReport @HagmannPI @SheriffClarke @dbongino @garyfranchi 
Unnamed 5G Whistleblower Claims That People Are Being Infected With Coronavirus Via Covid-19 Tests
Could the tests be spreading the virus?
https://t.co/7F9vkITD3L",False,"[0, 256]","{'hashtags': [], 'symbols': [], 'user_mentions': [{'screen_name': 'libertytarian', 'name': 'David Knight', 'id': 590211920, 'id_str': '590211920', 'indices': [0, 14]}, {'screen_name': 'allidoisowen', 'name': 'J Owen Shroyer 🖕', 'id': 337484648, 'id_str': '337484648', 'indices': [15, 28]}, {'screen_name': 'HagmannReport', 'name': 'Hagmann Report', 'id': 1930551558, 'id_str': '1930551558', 'indices': [29, 43]}, {'screen_name': 'HagmannPI', 'name': 'Douglas Hagmann❌', 'id': 25332431, 'id_str': '25332431', 'indices': [44, 54]}, {'screen_name': 'SheriffClarke', 'name': 'David A. Clarke, Jr.', 'id': 118845216, 'id_str': '118845216', 'indices': [55, 69]}, {'screen_name': 'dbongino', 'name': 'Dan Bongino', 'id': 232901331, 'id_str': '232901331', 'indices': [70, 79]}, {'screen_name': 'garyfranchi', 'name': 'Gary Franchi Jr.', 'id': 220233994, 'id_str': '220233994', 'indices': [80, 92]}], 'urls': [{'url': 'https://t.co/7F9vkITD3L', 'expanded_url': 'https://www.newswars.com/unnamed-5g-whistleblower-claims-that-people-are-being-infected-with-coronavirus-via-covid-19-tests', 'display_url': 'newswars.com/unnamed-5g-whi…', 'indices': [233, 256]}]}",,"<a href=""https://mobile.twitter.com"" rel=""nofollow"">Twitter Web App</a>",,,590211920.0,590211920,libertytarian,"{'id': 80626778, 'id_str': '80626778', 'name': 'Lizzy C', 'screen_name': 'lizzydebbie', 'location': 'GA', 'description': 'I have been married for 40 years. I have been a Domestic Engineer for 39 years. I’m a follower of Yeshua the Messiah! Trump KAGA/MAGA!!! WWG1WGA', 'url': 'https://t.co/RXfpDT1iFD', 'entities': {'url': {'urls': [{'url': 'https://t.co/RXfpDT1iFD', 'expanded_url': 'https://gab.com/lizzymarydeb56', 'display_url': 'gab.com/lizzymarydeb56', 'indices': [0, 23]}]}, 'description': {'urls': []}}, 'protected': False, 'followers_count': 11028, 'friends_count': 11506, 'listed_count': 28, 'created_at': 'Wed Oct 07 17:12:48 +0000 2009', 'favourites_count': 23082, 'utc_offset': None, 'time_zone': None, 'geo_enabled': True, 'verified': False, 'statuses_count': 265183, 'lang': None, 'contributors_enabled': False, 'is_translator': False, 'is_translation_enabled': False, 'profile_background_color': '981CEB', 'profile_background_image_url': 'http://abs.twimg.com/images/themes/theme14/bg.gif', 'profile_background_image_url_https': 'https://abs.twimg.com/images/themes/theme14/bg.gif', 'profile_background_tile': True, 'profile_image_url': 'http://pbs.twimg.com/profile_images/1281340716095070214/i5bkk6Wp_normal.jpg', 'profile_image_url_https': 'https://pbs.twimg.com/profile_images/1281340716095070214/i5bkk6Wp_normal.jpg', 'profile_banner_url': 'https://pbs.twimg.com/profile_banners/80626778/1594330390', 'profile_link_color': '981CEB', 'profile_sidebar_border_color': '000000', 'profile_sidebar_fill_color': '000000', 'profile_text_color': '000000', 'profile_use_background_image': True, 'has_extended_profile': True, 'default_profile': False, 'default_profile_image': False, 'following': False, 'follow_request_sent': False, 'notifications': False, 'translator_type': 'regular'}",,,,,False,,,,,0,0,False,False,False,en,1.0
328,328,Fri Apr 03 14:06:42 +0000 2020,1246076662913040385,1246076662913040385,Unnamed 5G Whistleblower Claims That People Are Being Infected With Coronavirus Via Covid-19 Tests   ⁦@imjustbrum⁩ ...connection ?? https://t.co/DgQSthqo2A,False,"[0, 155]","{'hashtags': [], 'symbols': [], 'user_mentions': [{'screen_name': 'imjustbrum', 'name': 'Official #1 Birmingham Page', 'id': 1118460154243100672, 'id_str': '1118460154243100672', 'indices': [102, 113]}], 'urls': [{'url': 'https://t.co/DgQSthqo2A', 'expanded_url': 'https://www.infowars.com/unnamed-5g-whistleblower-claims-that-people-are-being-infected-with-coronavirus-via-covid-19-tests/', 'display_url': 'infowars.com/unnamed-5g-whi…', 'indices': [132, 155]}]}",,"<a href=""http://twitter.com/download/iphone"" rel=""nofollow"">Twitter for iPhone</a>",,,,,,"{'id': 847952888404029440, 'id_str': '847952888404029440', 'name': 'Michael Corleone', 'screen_name': 'MCorleone47', 'location': '', 'description': 'Italian American 🇺🇸🇮🇹.  1A / 2A.  Family faith friends flag and firearms.  Stomp on my flag I will stomp ur azz.  Trump 2020  MAGA / KAG', 'url': None, 'entities': {'description': {'urls': []}}, 'protected': False, 'followers_count': 980, 'friends_count': 1508, 'listed_count': 0, 'created_at': 'Fri Mar 31 23:24:57 +0000 2017', 'favourites_count': 2627, 'utc_offset': None, 'time_zone': None, 'geo_enabled': False, 'verified': False, 'statuses_count': 10136, 'lang': None, 'contributors_enabled': False, 'is_translator': False, 'is_translation_enabled': False, 'profile_background_color': 'F5F8FA', 'profile_background_image_url': None, 'profile_background_image_url_https': None, 'profile_background_tile': False, 'profile_image_url': 'http://pbs.twimg.com/profile_images/856002980079947776/y9ElEyeJ_normal.jpg', 'profile_image_url_https': 'https://pbs.twimg.com/profile_images/856002980079947776/y9ElEyeJ_normal.jpg', 'profile_banner_url': 'https://pbs.twimg.com/profile_banners/847952888404029440/1492922592', 'profile_link_color': '1DA1F2', 'profile_sidebar_border_color': 'C0DEED', 'profile_sidebar_fill_color': 'DDEEF6', 'profile_text_color': '333333', 'profile_use_background_image': True, 'has_extended_profile': False, 'default_profile': True, 'default_profile_image': False, 'following': False, 'follow_request_sent': False, 'notifications': False, 'translator_type': 'none'}",,,,,False,,,,,0,1,False,False,False,en,1.0
978,978,Fri Apr 03 00:23:32 +0000 2020,1245869507664474112,1245869507664474112,Unnamed 5G Whistleblower Claims That People Are Being Infected With Coronavirus Via Covid-19 Tests https://t.co/auTIvmaErV,False,"[0, 122]","{'hashtags': [], 'symbols': [], 'user_mentions': [], 'urls': [{'url': 'https://t.co/auTIvmaErV', 'expanded_url': 'https://www.infowars.com/unnamed-5g-whistleblower-claims-that-people-are-being-infected-with-coronavirus-via-covid-19-tests/', 'display_url': 'infowars.com/unnamed-5g-whi…', 'indices': [99, 122]}]}",,"<a href=""http://twitter.com"" rel=""nofollow"">Twitter Web Client</a>",,,,,,"{'id': 865242169, 'id_str': '865242169', 'name': 'The Eric Erb Show', 'screen_name': 'TheEricErbShow', 'location': 'Orlando, FL', 'description': 'Live From Sunny Orlando,FL Its the One and Only EricErbShow, \nPlease Continue to Support my work, My PayPal Donations Link: https://t.co/QUQ8lzEoM2', 'url': 'https://t.co/6gwaPWthv3', 'entities': {'url': {'urls': [{'url': 'https://t.co/6gwaPWthv3', 'expanded_url': 'https://theericerbshow.com/', 'display_url': 'theericerbshow.com', 'indices': [0, 23]}]}, 'description': {'urls': [{'url': 'https://t.co/QUQ8lzEoM2', 'expanded_url': 'https://www.paypal.me/ericerb1', 'display_url': 'paypal.me/ericerb1', 'indices': [124, 147]}]}}, 'protected': False, 'followers_count': 104498, 'friends_count': 28083, 'listed_count': 196, 'created_at': 'Sat Oct 06 20:08:46 +0000 2012', 'favourites_count': 12715, 'utc_offset': None, 'time_zone': None, 'geo_enabled': True, 'verified': False, 'statuses_count': 107680, 'lang': None, 'contributors_enabled': False, 'is_translator': False, 'is_translation_enabled': False, 'profile_background_color': '642D8B', 'profile_background_image_url': 'http://abs.twimg.com/images/themes/theme10/bg.gif', 'profile_background_image_url_https': 'https://abs.twimg.com/images/themes/theme10/bg.gif', 'profile_background_tile': True, 'profile_image_url': 'http://pbs.twimg.com/profile_images/1169009954583437312/cZ8G-Upi_normal.jpg', 'profile_image_url_https': 'https://pbs.twimg.com/profile_images/1169009954583437312/cZ8G-Upi_normal.jpg', 'profile_banner_url': 'https://pbs.twimg.com/profile_banners/865242169/1532297544', 'profile_link_color': '1100FF', 'profile_sidebar_border_color': 'FFFFFF', 'profile_sidebar_fill_color': '7AC3EE', 'profile_text_color': '3D1957', 'profile_use_background_image': True, 'has_extended_profile': False, 'default_profile': False, 'default_profile_image': False, 'following': False, 'follow_request_sent': False, 'notifications': False, 'translator_type': 'regular'}",,,,,False,,,,,0,0,False,False,False,en,1.0
5564,195,Thu Apr 02 20:10:44 +0000 2020,1245805889141030913,1245805889141030913,"@LarryEKlayman @steve_quayle @foxandfriends @ericbolling @dahboo7 @Lisa_Haven 
Unnamed 5G Whistleblower Claims That People Are Being Infected With Coronavirus Via Covid-19 Tests
Could the tests be spreading the virus?
https://t.co/7F9vkITD3L",False,"[0, 241]","{'hashtags': [], 'symbols': [], 'user_mentions': [{'screen_name': 'LarryEKlayman', 'name': 'Larry Klayman', 'id': 190821375, 'id_str': '190821375', 'indices': [0, 14]}, {'screen_name': 'steve_quayle', 'name': 'Steve Quayle', 'id': 726483436597338114, 'id_str': '726483436597338114', 'indices': [15, 28]}, {'screen_name': 'foxandfriends', 'name': 'FOX & friends', 'id': 15513604, 'id_str': '15513604', 'indices': [29, 43]}, {'screen_name': 'ericbolling', 'name': '🇺🇸 ERIC BOLLING 🇺🇸', 'id': 14839147, 'id_str': '14839147', 'indices': [44, 56]}, {'screen_name': 'dahboo7', 'name': 'Dahboo7', 'id': 1411455757, 'id_str': '1411455757', 'indices': [57, 65]}, {'screen_name': 'Lisa_Haven', 'name': 'Lisa Haven', 'id': 2290728422, 'id_str': '2290728422', 'indices': [66, 77]}], 'urls': [{'url': 'https://t.co/7F9vkITD3L', 'expanded_url': 'https://www.newswars.com/unnamed-5g-whistleblower-claims-that-people-are-being-infected-with-coronavirus-via-covid-19-tests', 'display_url': 'newswars.com/unnamed-5g-whi…', 'indices': [218, 241]}]}",,"<a href=""https://mobile.twitter.com"" rel=""nofollow"">Twitter Web App</a>",,,190821375.0,190821375,LarryEKlayman,"{'id': 80626778, 'id_str': '80626778', 'name': 'Lizzy C', 'screen_name': 'lizzydebbie', 'location': 'GA', 'description': 'I have been married for 40 years. I have been a Domestic Engineer for 39 years. I’m a follower of Yeshua the Messiah! Trump KAGA/MAGA!!! WWG1WGA', 'url': 'https://t.co/RXfpDT1iFD', 'entities': {'url': {'urls': [{'url': 'https://t.co/RXfpDT1iFD', 'expanded_url': 'https://gab.com/lizzymarydeb56', 'display_url': 'gab.com/lizzymarydeb56', 'indices': [0, 23]}]}, 'description': {'urls': []}}, 'protected': False, 'followers_count': 11028, 'friends_count': 11506, 'listed_count': 28, 'created_at': 'Wed Oct 07 17:12:48 +0000 2009', 'favourites_count': 23082, 'utc_offset': None, 'time_zone': None, 'geo_enabled': True, 'verified': False, 'statuses_count': 265183, 'lang': None, 'contributors_enabled': False, 'is_translator': False, 'is_translation_enabled': False, 'profile_background_color': '981CEB', 'profile_background_image_url': 'http://abs.twimg.com/images/themes/theme14/bg.gif', 'profile_background_image_url_https': 'https://abs.twimg.com/images/themes/theme14/bg.gif', 'profile_background_tile': True, 'profile_image_url': 'http://pbs.twimg.com/profile_images/1281340716095070214/i5bkk6Wp_normal.jpg', 'profile_image_url_https': 'https://pbs.twimg.com/profile_images/1281340716095070214/i5bkk6Wp_normal.jpg', 'profile_banner_url': 'https://pbs.twimg.com/profile_banners/80626778/1594330390', 'profile_link_color': '981CEB', 'profile_sidebar_border_color': '000000', 'profile_sidebar_fill_color': '000000', 'profile_text_color': '000000', 'profile_use_background_image': True, 'has_extended_profile': True, 'default_profile': False, 'default_profile_image': False, 'following': False, 'follow_request_sent': False, 'notifications': False, 'translator_type': 'regular'}",,,,,False,,,,,0,0,False,False,False,en,2.0
735,735,Sat Apr 04 16:33:50 +0000 2020,1246476081357611010,1246476081357611010,"#COVID19

Hon. Minister of Communication &amp; Digital Economy @FMoCDENigeria, @DrIsaPantami has allayed fear making round on the status of 5G technology in Nigeria and claim of link to #COVID19. 

Be guided by information from reliable &amp; relevant authorities.

#COVID19Nigeria
👇 👇 https://t.co/oGi72DUDcX",False,"[0, 285]","{'hashtags': [{'text': 'COVID19', 'indices': [0, 8]}, {'text': 'COVID19', 'indices': [186, 194]}, {'text': 'COVID19Nigeria', 'indices': [266, 281]}], 'symbols': [], 'user_mentions': [{'screen_name': 'FMoCDENigeria', 'name': 'Fed Ministry of Communications & Digital Economy', 'id': 372673091, 'id_str': '372673091', 'indices': [63, 77]}, {'screen_name': 'DrIsaPantami', 'name': 'Isa Ali Pantami, PhD', 'id': 2748555327, 'id_str': '2748555327', 'indices': [79, 92]}], 'urls': [], 'media': [{'id': 1246476063909314560, 'id_str': '1246476063909314560', 'indices': [286, 309], 'media_url': 'http://pbs.twimg.com/media/EUxfYEJXgAAPwOP.jpg', 'media_url_https': 'https://pbs.twimg.com/media/EUxfYEJXgAAPwOP.jpg', 'url': 'https://t.co/oGi72DUDcX', 'display_url': 'pic.twitter.com/oGi72DUDcX', 'expanded_url': 'https://twitter.com/NOA_Nigeria/status/1246476081357611010/photo/1', 'type': 'photo', 'sizes': {'thumb': {'w': 150, 'h': 150, 'resize': 'crop'}, 'medium': {'w': 707, 'h': 1000, 'resize': 'fit'}, 'small': {'w': 481, 'h': 680, 'resize': 'fit'}, 'large': {'w': 707, 'h': 1000, 'resize': 'fit'}}}]}","{'media': [{'id': 1246476063909314560, 'id_str': '1246476063909314560', 'indices': [286, 309], 'media_url': 'http://pbs.twimg.com/media/EUxfYEJXgAAPwOP.jpg', 'media_url_https': 'https://pbs.twimg.com/media/EUxfYEJXgAAPwOP.jpg', 'url': 'https://t.co/oGi72DUDcX', 'display_url': 'pic.twitter.com/oGi72DUDcX', 'expanded_url': 'https://twitter.com/NOA_Nigeria/status/1246476081357611010/photo/1', 'type': 'photo', 'sizes': {'thumb': {'w': 150, 'h': 150, 'resize': 'crop'}, 'medium': {'w': 707, 'h': 1000, 'resize': 'fit'}, 'small': {'w': 481, 'h': 680, 'resize': 'fit'}, 'large': {'w': 707, 'h': 1000, 'resize': 'fit'}}}, {'id': 1246476073484931078, 'id_str': '1246476073484931078', 'indices': [286, 309], 'media_url': 'http://pbs.twimg.com/media/EUxfYn0X0AYFvj8.jpg', 'media_url_https': 'https://pbs.twimg.com/media/EUxfYn0X0AYFvj8.jpg', 'url': 'https://t.co/oGi72DUDcX', 'display_url': 'pic.twitter.com/oGi72DUDcX', 'expanded_url': 'https://twitter.com/NOA_Nigeria/status/1246476081357611010/photo/1', 'type': 'photo', 'sizes': {'thumb': {'w': 150, 'h': 150, 'resize': 'crop'}, 'large': {'w': 707, 'h': 1000, 'resize': 'fit'}, 'small': {'w': 481, 'h': 680, 'resize': 'fit'}, 'medium': {'w': 707, 'h': 1000, 'resize': 'fit'}}}]}","<a href=""http://twitter.com/download/android"" rel=""nofollow"">Twitter for Android</a>",,,,,,"{'id': 404112499, 'id_str': '404112499', 'name': 'NOA Nigeria', 'screen_name': 'NOA_Nigeria', 'location': 'Abuja, Nigeria', 'description': 'Welcome to the official twitter account of the National Orientation Agency (NOA), Nigeria. #ChangeBeginsWithMe.', 'url': 'https://t.co/s6ZrlTWPAK', 'entities': {'url': {'urls': [{'url': 'https://t.co/s6ZrlTWPAK', 'expanded_url': 'http://www.noa.gov.ng', 'display_url': 'noa.gov.ng', 'indices': [0, 23]}]}, 'description': {'urls': []}}, 'protected': False, 'followers_count': 102116, 'friends_count': 863, 'listed_count': 108, 'created_at': 'Thu Nov 03 13:24:07 +0000 2011', 'favourites_count': 277, 'utc_offset': None, 'time_zone': None, 'geo_enabled': True, 'verified': False, 'statuses_count': 16271, 'lang': None, 'contributors_enabled': False, 'is_translator': False, 'is_translation_enabled': False, 'profile_background_color': 'EDECE9', 'profile_background_image_url': 'http://abs.twimg.com/images/themes/theme3/bg.gif', 'profile_background_image_url_https': 'https://abs.twimg.com/images/themes/theme3/bg.gif', 'profile_background_tile': False, 'profile_image_url': 'http://pbs.twimg.com/profile_images/651307968898560000/ACPCWELM_normal.jpg', 'profile_image_url_https': 'https://pbs.twimg.com/profile_images/651307968898560000/ACPCWELM_normal.jpg', 'profile_banner_url': 'https://pbs.twimg.com/profile_banners/404112499/1473329060', 'profile_link_color': '088253', 'profile_sidebar_border_color': 'D3D2CF', 'profile_sidebar_fill_color': 'E3E2DE', 'profile_text_color': '634047', 'profile_use_background_image': True, 'has_extended_profile': True, 'default_profile': False, 'default_profile_image': False, 'following': False, 'follow_request_sent': False, 'notifications': False, 'translator_type': 'none'}",,,,,False,,,,,1034,1725,False,False,False,en,1.0
5184,4027,Sun Apr 05 09:02:28 +0000 2020,1246724879396864004,1246724879396864004,"#COVID19

Hon. Minister of Communication &amp; Digital Economy @FMoCDENigeria, @DrIsaPantami has allayed fear making round on the status of 5G technology in Nigeria and claim of link to #COVID19. 

Be guided by information from reliable &amp; relevant authorities.

#COVID19Nigeria https://t.co/wbL73K6RKg",False,"[0, 281]","{'hashtags': [{'text': 'COVID19', 'indices': [0, 8]}, {'text': 'COVID19', 'indices': [186, 194]}, {'text': 'COVID19Nigeria', 'indices': [266, 281]}], 'symbols': [], 'user_mentions': [{'screen_name': 'FMoCDENigeria', 'name': 'Fed Ministry of Communications & Digital Economy', 'id': 372673091, 'id_str': '372673091', 'indices': [63, 77]}, {'screen_name': 'DrIsaPantami', 'name': 'Isa Ali Pantami, PhD', 'id': 2748555327, 'id_str': '2748555327', 'indices': [79, 92]}], 'urls': [], 'media': [{'id': 1246724861172633600, 'id_str': '1246724861172633600', 'indices': [282, 305], 'media_url': 'http://pbs.twimg.com/media/EU1Bp-LX0AAMgIT.jpg', 'media_url_https': 'https://pbs.twimg.com/media/EU1Bp-LX0AAMgIT.jpg', 'url': 'https://t.co/wbL73K6RKg', 'display_url': 'pic.twitter.com/wbL73K6RKg', 'expanded_url': 'https://twitter.com/gambo_idrees/status/1246724879396864004/photo/1', 'type': 'photo', 'sizes': {'thumb': {'w': 150, 'h': 150, 'resize': 'crop'}, 'medium': {'w': 707, 'h': 1000, 'resize': 'fit'}, 'small': {'w': 481, 'h': 680, 'resize': 'fit'}, 'large': {'w': 707, 'h': 1000, 'resize': 'fit'}}}]}","{'media': [{'id': 1246724861172633600, 'id_str': '1246724861172633600', 'indices': [282, 305], 'media_url': 'http://pbs.twimg.com/media/EU1Bp-LX0AAMgIT.jpg', 'media_url_https': 'https://pbs.twimg.com/media/EU1Bp-LX0AAMgIT.jpg', 'url': 'https://t.co/wbL73K6RKg', 'display_url': 'pic.twitter.com/wbL73K6RKg', 'expanded_url': 'https://twitter.com/gambo_idrees/status/1246724879396864004/photo/1', 'type': 'photo', 'sizes': {'thumb': {'w': 150, 'h': 150, 'resize': 'crop'}, 'medium': {'w': 707, 'h': 1000, 'resize': 'fit'}, 'small': {'w': 481, 'h': 680, 'resize': 'fit'}, 'large': {'w': 707, 'h': 1000, 'resize': 'fit'}}}, {'id': 1246724871629017088, 'id_str': '1246724871629017088', 'indices': [282, 305], 'media_url': 'http://pbs.twimg.com/media/EU1BqlIXkAAmPAP.jpg', 'media_url_https': 'https://pbs.twimg.com/media/EU1BqlIXkAAmPAP.jpg', 'url': 'https://t.co/wbL73K6RKg', 'display_url': 'pic.twitter.com/wbL73K6RKg', 'expanded_url': 'https://twitter.com/gambo_idrees/status/1246724879396864004/photo/1', 'type': 'photo', 'sizes': {'thumb': {'w': 150, 'h': 150, 'resize': 'crop'}, 'large': {'w': 707, 'h': 1000, 'resize': 'fit'}, 'small': {'w': 481, 'h': 680, 'resize': 'fit'}, 'medium': {'w': 707, 'h': 1000, 'resize': 'fit'}}}]}","<a href=""http://twitter.com/download/android"" rel=""nofollow"">Twitter for Android</a>",,,,,,"{'id': 4407580588, 'id_str': '4407580588', 'name': 'Idrees Gambo LLB, BL', 'screen_name': 'gambo_idrees', 'location': 'Bauchi 🌁 Nigeria 🇳🇬', 'description': '||Barrister & Solicitor|Human Rights Activist|| Online Daee, Public Speaker/Columnist, Pan Africanist, PRP Online TV, PP: S. G Idress & Co.(Al-Mufeed Law Firm)', 'url': 'https://t.co/PXPYfRfsdL', 'entities': {'url': {'urls': [{'url': 'https://t.co/PXPYfRfsdL', 'expanded_url': 'http://Facebook.com/idreesgambo', 'display_url': 'Facebook.com/idreesgambo', 'indices': [0, 23]}]}, 'description': {'urls': []}}, 'protected': False, 'followers_count': 720, 'friends_count': 4913, 'listed_count': 0, 'created_at': 'Mon Dec 07 18:35:02 +0000 2015', 'favourites_count': 1415, 'utc_offset': None, 'time_zone': None, 'geo_enabled': False, 'verified': False, 'statuses_count': 756, 'lang': None, 'contributors_enabled': False, 'is_translator': False, 'is_translation_enabled': False, 'profile_background_color': 'C0DEED', 'profile_background_image_url': 'http://abs.twimg.com/images/themes/theme1/bg.png', 'profile_background_image_url_https': 'https://abs.twimg.com/images/themes/theme1/bg.png', 'profile_background_tile': False, 'profile_image_url': 'http://pbs.twimg.com/profile_images/1286040573359673344/cPAnjrMR_normal.jpg', 'profile_image_url_https': 'https://pbs.twimg.com/profile_images/1286040573359673344/cPAnjrMR_normal.jpg', 'profile_banner_url': 'https://pbs.twimg.com/profile_banners/4407580588/1571512880', 'profile_link_color': '1DA1F2', 'profile_sidebar_border_color': 'C0DEED', 'profile_sidebar_fill_color': 'DDEEF6', 'profile_text_color': '333333', 'profile_use_background_image': True, 'has_extended_profile': True, 'default_profile': True, 'default_profile_image': False, 'following': False, 'follow_request_sent': False, 'notifications': False, 'translator_type': 'none'}",,,,,False,,,,,0,2,False,False,False,en,3.0
